%!PS-Adobe-3.0 EPSF-3.0
%%Title: ../figures/LFs/luminosity_function_SMC_LMC_MW.eps
%%Creator: matplotlib version 3.1.0, http://matplotlib.org/
%%CreationDate: Tue Nov  9 15:15:00 2021
%%Orientation: portrait
%%BoundingBox: 90.0 252.0 522.0 540.0
%%EndComments
%%BeginProlog
/mpldict 10 dict def
mpldict begin
/m { moveto } bind def
/l { lineto } bind def
/r { rlineto } bind def
/c { curveto } bind def
/cl { closepath } bind def
/box {
m
1 index 0 r
0 exch r
neg 0 r
cl
} bind def
/clipbox {
box
clip
newpath
} bind def
%!PS-Adobe-3.0 Resource-Font
%%Title: DejaVu Serif
%%Copyright: Copyright (c) 2003 by Bitstream, Inc. All Rights Reserved. DejaVu changes are in public domain 
%%Creator: Converted from TrueType to type 3 by PPR
25 dict begin
/_d{bind def}bind def
/_m{moveto}_d
/_l{lineto}_d
/_cl{closepath eofill}_d
/_c{curveto}_d
/_sc{7 -1 roll{setcachedevice}{pop pop pop pop pop pop}ifelse}_d
/_e{exec}_d
/FontName /DejaVuSerif def
/PaintType 0 def
/FontMatrix[.001 0 0 .001 0 0]def
/FontBBox[-770 -347 2105 1109]def
/FontType 3 def
/Encoding [ /space /parenleft /parenright /comma /hyphen /period /zero /one /two /three /four /five /six /seven /eight /nine /equal /C /D /F /L /M /P /S /W /bracketleft /bracketright /a /b /c /d /e /f /i /l /n /o /p /r /s /t /u /y /minus ] def
/FontInfo 10 dict dup begin
/FamilyName (DejaVu Serif) def
/FullName (DejaVu Serif) def
/Notice (Copyright (c) 2003 by Bitstream, Inc. All Rights Reserved. DejaVu changes are in public domain ) def
/Weight (Book) def
/Version (Version 2.35) def
/ItalicAngle 0.0 def
/isFixedPitch false def
/UnderlinePosition -130 def
/UnderlineThickness 90 def
end readonly def
/CharStrings 45 dict dup begin
/.notdef 0 def
/space{318 0 0 0 0 0 _sc
}_d
/parenleft{390 0 79 -155 319 760 _sc
319 -155 _m
239 -119 179 -63 139 13 _c
99 89 79 186 79 302 _c
79 418 99 514 139 591 _c
179 668 239 724 319 760 _c
319 712 _l
269 677 233 628 211 566 _c
189 503 178 415 178 302 _c
178 188 189 100 211 38 _c
233 -24 269 -72 319 -107 _c
319 -155 _l
_cl}_d
/parenright{390 0 71 -155 311 760 _sc
71 -155 _m
71 -107 _l
121 -72 157 -24 179 38 _c
201 100 212 188 212 302 _c
212 415 201 503 179 566 _c
157 628 121 677 71 712 _c
71 760 _l
150 724 210 668 250 591 _c
290 514 311 418 311 302 _c
311 186 290 89 250 13 _c
210 -63 150 -119 71 -155 _c
_cl}_d
/comma{318 0 36 -135 221 111 _sc
36 -96 _m
66 -73 89 -47 103 -17 _c
117 13 125 49 125 93 _c
125 111 _l
221 111 _l
218 55 205 7 181 -32 _c
157 -71 122 -105 75 -135 _c
36 -96 _l
_cl}_d
/hyphen{338 0 44 230 294 306 _sc
44 306 _m
294 306 _l
294 230 _l
44 230 _l
44 306 _l
_cl}_d
/period{318 0 94 -13 224 116 _sc
94 51 _m
94 69 100 84 112 97 _c
124 109 140 116 159 116 _c
177 116 192 109 205 97 _c
217 84 224 69 224 51 _c
224 33 217 17 205 5 _c
192 -7 177 -13 159 -13 _c
140 -13 124 -7 112 5 _c
100 17 94 32 94 51 _c
_cl}_d
/zero{636 0 66 -13 570 742 _sc
318 34 _m
368 34 405 61 430 116 _c
454 170 467 253 467 364 _c
467 474 454 557 430 612 _c
405 666 368 694 318 694 _c
268 694 230 666 206 612 _c
181 557 169 474 169 364 _c
169 253 181 170 206 116 _c
230 61 268 34 318 34 _c
318 -13 _m
238 -13 176 20 132 86 _c
88 152 66 244 66 364 _c
66 483 88 576 132 642 _c
176 708 238 742 318 742 _c
397 742 459 708 503 642 _c
547 576 570 483 570 364 _c
570 244 547 152 503 86 _c
459 20 397 -13 318 -13 _c
_cl}_d
/one{636 0 122 0 494 742 _sc
142 0 _m
142 52 _l
269 52 _l
269 658 _l
122 563 _l
122 627 _l
300 742 _l
367 742 _l
367 52 _l
494 52 _l
494 0 _l
142 0 _l
_cl}_d
/two{{636 0 68 0 538 742 _sc
128 555 _m
73 555 _l
73 685 _l
107 703 142 717 178 727 _c
213 737 248 742 282 742 _c
358 742 418 723 462 687 _c
506 650 528 600 528 537 _c
528 465 478 380 378 281 _c
370 273 365 268 361 264 _c
177 80 _l
481 80 _l
481 170 _l
538 170 _l
538 0 _l
68 0 _l
68 53 _l
289 274 _l
337 322 372 367 393 408 _c
414 449 425 492 425 537 _c
}_e{425 586 412 624 386 652 _c
360 680 325 694 281 694 _c
234 694 198 682 173 659 _c
147 636 132 601 128 555 _c
_cl}_e}_d
/three{{636 0 76 -13 562 742 _sc
97 698 _m
135 712 171 723 206 731 _c
241 738 274 742 305 742 _c
376 742 432 726 472 696 _c
512 665 532 622 532 568 _c
532 524 518 487 490 458 _c
462 428 423 408 373 398 _c
433 389 479 367 512 332 _c
545 297 562 252 562 197 _c
562 129 539 77 493 41 _c
447 5 382 -13 296 -13 _c
258 -13 220 -9 184 -1 _c
148 6 112 18 76 35 _c
76 177 _l
}_e{131 177 _l
134 129 150 94 178 70 _c
206 46 246 34 298 34 _c
348 34 387 48 416 77 _c
444 106 459 146 459 196 _c
459 253 444 296 414 326 _c
384 355 341 370 284 370 _c
238 370 _l
238 420 _l
262 420 _l
319 420 362 431 390 455 _c
418 479 433 514 433 562 _c
433 604 421 637 398 660 _c
374 682 341 694 297 694 _c
253 694 218 683 194 662 _c
170 641 156 610 152 570 _c
}_e{97 570 _l
97 698 _l
_cl}_e}_d
/four{636 0 31 0 586 742 _sc
349 247 _m
349 635 _l
100 247 _l
349 247 _l
564 0 _m
232 0 _l
232 52 _l
349 52 _l
349 195 _l
31 195 _l
31 248 _l
350 742 _l
447 742 _l
447 247 _l
586 247 _l
586 195 _l
447 195 _l
447 52 _l
564 52 _l
564 0 _l
_cl}_d
/five{{636 0 85 -13 559 729 _sc
503 729 _m
503 649 _l
169 649 _l
169 440 _l
185 452 205 460 228 466 _c
250 472 276 475 304 475 _c
382 475 444 453 490 409 _c
536 365 559 306 559 231 _c
559 153 536 93 490 51 _c
444 8 379 -13 296 -13 _c
262 -13 228 -9 193 -1 _c
157 6 121 18 85 35 _c
85 177 _l
140 177 _l
143 130 158 94 184 70 _c
210 46 248 34 296 34 _c
}_e{347 34 386 51 414 85 _c
442 119 456 167 456 231 _c
456 294 442 342 415 376 _c
387 410 348 427 296 427 _c
266 427 240 421 218 411 _c
196 401 176 385 159 363 _c
117 363 _l
117 729 _l
503 729 _l
_cl}_e}_d
/six{{636 0 67 -13 573 742 _sc
327 34 _m
373 34 408 50 433 84 _c
457 118 470 166 470 230 _c
470 293 457 341 433 375 _c
408 409 373 426 327 426 _c
280 426 244 409 220 377 _c
196 344 184 297 184 236 _c
184 171 196 121 221 86 _c
245 51 281 34 327 34 _c
168 401 _m
190 425 215 444 243 456 _c
271 468 302 474 338 474 _c
410 474 468 452 510 408 _c
552 364 573 305 573 230 _c
}_e{573 156 550 97 505 53 _c
459 9 399 -13 323 -13 _c
241 -13 177 17 133 78 _c
89 139 67 227 67 341 _c
67 468 93 567 145 637 _c
197 707 271 742 367 742 _c
393 742 420 739 448 735 _c
476 730 505 723 535 713 _c
535 593 _l
480 593 _l
476 625 463 650 442 668 _c
421 685 393 694 357 694 _c
293 694 246 670 215 622 _c
184 574 168 500 168 401 _c
_cl}_e}_d
/seven{636 0 84 0 564 729 _sc
564 679 _m
279 0 _l
206 0 _l
478 649 _l
141 649 _l
141 559 _l
84 559 _l
84 729 _l
564 729 _l
564 679 _l
_cl}_d
/eight{{636 0 67 -13 569 742 _sc
466 199 _m
466 251 453 291 427 320 _c
401 349 364 364 318 364 _c
271 364 235 349 209 320 _c
183 291 170 251 170 199 _c
170 147 183 106 209 77 _c
235 48 271 34 318 34 _c
364 34 401 48 427 77 _c
453 106 466 147 466 199 _c
446 553 _m
446 597 434 632 412 657 _c
389 681 358 694 318 694 _c
278 694 246 681 224 657 _c
201 632 190 597 190 553 _c
}_e{190 508 201 473 224 449 _c
246 424 278 412 318 412 _c
358 412 389 424 412 449 _c
434 473 446 508 446 553 _c
393 388 _m
448 380 491 360 522 327 _c
553 293 569 251 569 199 _c
569 131 547 78 504 42 _c
460 5 398 -13 318 -13 _c
237 -13 175 5 132 42 _c
88 78 67 131 67 199 _c
67 251 82 293 113 327 _c
144 360 187 380 243 388 _c
193 396 156 415 130 444 _c
}_e{104 472 91 509 91 553 _c
91 611 111 657 151 691 _c
191 725 247 742 318 742 _c
388 742 444 725 484 691 _c
524 657 545 611 545 553 _c
545 509 531 472 505 444 _c
479 415 441 396 393 388 _c
_cl}_e}_d
/nine{{636 0 63 -13 569 742 _sc
468 327 _m
446 302 420 284 392 272 _c
364 260 332 254 297 254 _c
224 254 167 275 125 319 _c
83 363 63 422 63 498 _c
63 572 85 631 131 675 _c
176 719 237 742 313 742 _c
395 742 459 711 503 650 _c
547 588 569 501 569 387 _c
569 259 542 161 490 91 _c
438 21 364 -13 269 -13 _c
243 -13 216 -10 188 -6 _c
160 -2 131 5 101 15 _c
101 136 _l
}_e{156 136 _l
160 103 172 78 194 60 _c
215 42 243 34 279 34 _c
342 34 389 57 420 105 _c
450 153 466 227 468 327 _c
309 694 _m
263 694 227 677 203 643 _c
178 609 166 561 166 498 _c
166 434 178 386 203 352 _c
227 318 263 302 309 302 _c
355 302 390 318 415 351 _c
439 383 452 430 452 492 _c
452 556 439 606 415 641 _c
390 676 355 694 309 694 _c
_cl}_e}_d
/equal{838 0 106 175 732 452 _sc
106 452 _m
732 452 _l
732 374 _l
106 374 _l
106 452 _l
106 253 _m
732 253 _l
732 175 _l
106 175 _l
106 253 _l
_cl}_d
/C{{765 0 56 -13 705 742 _sc
705 193 _m
683 125 647 73 597 39 _c
546 4 482 -13 405 -13 _c
357 -13 312 -5 272 11 _c
231 27 195 50 164 82 _c
127 118 100 160 82 206 _c
64 252 56 305 56 364 _c
56 477 88 568 154 638 _c
219 707 305 742 413 742 _c
453 742 495 736 540 726 _c
584 716 633 700 685 679 _c
685 511 _l
630 511 _l
618 572 593 617 557 646 _c
}_e{521 675 470 690 405 690 _c
327 690 268 662 228 607 _c
188 551 168 470 168 364 _c
168 257 188 176 228 121 _c
268 65 327 38 405 38 _c
459 38 503 51 539 77 _c
574 103 599 141 615 193 _c
705 193 _l
_cl}_e}_d
/D{802 0 55 0 744 729 _sc
247 52 _m
338 52 _l
432 52 505 79 556 133 _c
606 187 632 264 632 365 _c
632 466 606 543 556 597 _c
505 650 432 677 338 677 _c
247 677 _l
247 52 _l
55 0 _m
55 52 _l
148 52 _l
148 677 _l
55 677 _l
55 729 _l
345 729 _l
471 729 569 697 639 633 _c
709 569 744 479 744 365 _c
744 250 708 160 638 96 _c
568 32 470 0 345 0 _c
55 0 _l
_cl}_d
/F{694 0 55 0 652 729 _sc
55 0 _m
55 52 _l
148 52 _l
148 677 _l
55 677 _l
55 729 _l
652 729 _l
652 567 _l
592 567 _l
592 669 _l
247 669 _l
247 425 _l
496 425 _l
496 516 _l
556 516 _l
556 274 _l
496 274 _l
496 365 _l
247 365 _l
247 52 _l
364 52 _l
364 0 _l
55 0 _l
_cl}_d
/L{664 0 55 0 640 729 _sc
55 0 _m
55 52 _l
148 52 _l
148 677 _l
55 677 _l
55 729 _l
340 729 _l
340 677 _l
247 677 _l
247 60 _l
580 60 _l
580 182 _l
640 182 _l
640 0 _l
55 0 _l
_cl}_d
/M{1024 0 50 0 973 729 _sc
55 0 _m
55 52 _l
148 52 _l
148 677 _l
50 677 _l
50 729 _l
262 729 _l
518 210 _l
774 729 _l
973 729 _l
973 677 _l
876 677 _l
876 52 _l
969 52 _l
969 0 _l
684 0 _l
684 52 _l
777 52 _l
777 615 _l
527 107 _l
458 107 _l
208 615 _l
208 52 _l
301 52 _l
301 0 _l
55 0 _l
_cl}_d
/P{{673 0 55 0 637 729 _sc
247 371 _m
376 371 _l
424 371 461 384 487 410 _c
512 436 525 474 525 524 _c
525 574 512 612 487 638 _c
461 664 424 677 376 677 _c
247 677 _l
247 371 _l
55 0 _m
55 52 _l
148 52 _l
148 677 _l
55 677 _l
55 729 _l
400 729 _l
472 729 530 710 573 673 _c
615 636 637 586 637 524 _c
637 461 615 411 573 374 _c
530 337 472 319 400 319 _c
247 319 _l
}_e{247 52 _l
360 52 _l
360 0 _l
55 0 _l
_cl}_e}_d
/S{{685 0 84 -13 612 742 _sc
93 35 _m
93 201 _l
149 201 _l
150 145 166 104 197 78 _c
227 51 274 38 336 38 _c
394 38 438 49 468 72 _c
498 95 514 129 514 173 _c
514 208 504 235 486 254 _c
468 272 429 291 370 309 _c
274 338 _l
204 359 154 385 126 417 _c
98 448 84 491 84 547 _c
84 609 106 657 150 691 _c
194 725 255 742 335 742 _c
369 742 406 738 446 731 _c
}_e{486 723 529 713 575 699 _c
575 544 _l
520 544 _l
514 595 497 632 468 655 _c
439 678 395 690 337 690 _c
285 690 246 679 219 658 _c
192 637 179 607 179 567 _c
179 532 189 505 209 485 _c
229 465 272 445 338 426 _c
428 399 _l
494 379 541 353 569 323 _c
597 292 612 251 612 199 _c
612 128 589 75 544 40 _c
498 4 431 -13 342 -13 _c
302 -13 261 -9 219 -1 _c
}_e{177 6 135 18 93 35 _c
_cl}_e}_d
/W{1028 0 5 0 1025 729 _sc
762 0 _m
682 0 _l
515 593 _l
348 0 _l
268 0 _l
77 677 _l
5 677 _l
5 729 _l
271 729 _l
271 677 _l
180 677 _l
332 138 _l
498 729 _l
577 729 _l
746 132 _l
899 677 _l
815 677 _l
815 729 _l
1025 729 _l
1025 677 _l
953 677 _l
762 0 _l
_cl}_d
/bracketleft{390 0 86 -131 313 760 _sc
86 760 _m
313 760 _l
313 708 _l
179 708 _l
179 -79 _l
313 -79 _l
313 -131 _l
86 -131 _l
86 760 _l
_cl}_d
/bracketright{390 0 77 -131 304 760 _sc
304 760 _m
304 -131 _l
77 -131 _l
77 -79 _l
211 -79 _l
211 708 _l
77 708 _l
77 760 _l
304 760 _l
_cl}_d
/a{{596 0 50 -13 568 533 _sc
398 163 _m
398 273 _l
282 273 _l
237 273 204 263 182 244 _c
160 224 150 195 150 156 _c
150 120 161 91 183 70 _c
205 48 235 38 273 38 _c
310 38 340 49 363 72 _c
386 95 398 125 398 163 _c
488 324 _m
488 52 _l
568 52 _l
568 0 _l
398 0 _l
398 56 _l
378 32 355 14 329 3 _c
303 -7 272 -13 238 -13 _c
180 -13 134 2 100 32 _c
}_e{66 62 50 104 50 156 _c
50 209 69 250 108 280 _c
146 310 201 325 272 325 _c
398 325 _l
398 361 _l
398 400 386 430 362 452 _c
338 474 304 485 261 485 _c
225 485 197 476 176 460 _c
154 444 141 420 136 388 _c
90 388 _l
90 493 _l
121 506 151 516 181 523 _c
210 529 239 533 267 533 _c
339 533 393 515 431 479 _c
469 443 488 392 488 324 _c
_cl}_e}_d
/b{{640 0 29 -13 590 760 _sc
115 52 _m
115 708 _l
29 708 _l
29 760 _l
205 760 _l
205 438 _l
222 470 244 494 272 510 _c
299 525 333 533 373 533 _c
437 533 489 507 529 457 _c
569 407 590 341 590 260 _c
590 178 569 112 529 62 _c
489 12 437 -13 373 -13 _c
333 -13 299 -5 272 9 _c
244 24 222 48 205 81 _c
205 0 _l
29 0 _l
29 52 _l
115 52 _l
205 234 _m
}_e{205 171 217 123 241 91 _c
265 58 299 42 345 42 _c
391 42 425 60 449 97 _c
473 133 485 188 485 260 _c
485 332 473 386 449 422 _c
425 458 391 477 345 477 _c
299 477 265 460 241 427 _c
217 394 205 347 205 285 _c
205 234 _l
_cl}_e}_d
/c{{560 0 50 -13 514 533 _sc
514 156 _m
501 100 477 58 441 30 _c
405 1 358 -13 301 -13 _c
225 -13 165 11 119 61 _c
73 111 50 177 50 260 _c
50 342 73 408 119 458 _c
165 508 225 533 301 533 _c
333 533 366 529 399 521 _c
431 513 464 502 497 487 _c
497 354 _l
445 354 _l
438 399 423 432 400 453 _c
377 474 344 485 302 485 _c
253 485 216 466 192 428 _c
}_e{167 390 155 334 155 260 _c
155 184 167 128 192 90 _c
216 52 253 34 302 34 _c
340 34 371 44 394 64 _c
417 84 433 115 442 156 _c
514 156 _l
_cl}_e}_d
/d{{640 0 50 -13 611 760 _sc
525 52 _m
611 52 _l
611 0 _l
435 0 _l
435 81 _l
417 48 395 24 368 9 _c
340 -5 307 -13 267 -13 _c
203 -13 150 12 110 62 _c
70 112 50 178 50 260 _c
50 341 70 407 110 457 _c
150 507 203 533 267 533 _c
307 533 340 525 368 510 _c
395 494 417 470 435 438 _c
435 708 _l
350 708 _l
350 760 _l
525 760 _l
525 52 _l
435 234 _m
435 285 _l
}_e{435 347 423 394 399 427 _c
375 460 340 477 295 477 _c
249 477 214 458 190 422 _c
166 386 155 332 155 260 _c
155 188 166 133 190 97 _c
214 60 249 42 295 42 _c
340 42 375 58 399 91 _c
423 123 435 171 435 234 _c
_cl}_e}_d
/e{{592 0 50 -13 542 533 _sc
542 250 _m
155 250 _l
155 246 _l
155 176 168 123 194 87 _c
220 51 259 34 311 34 _c
350 34 382 44 408 65 _c
433 85 451 116 461 157 _c
533 157 _l
519 100 492 57 454 29 _c
415 1 364 -13 302 -13 _c
226 -13 165 11 119 61 _c
73 111 50 177 50 260 _c
50 342 72 408 118 458 _c
163 508 222 533 296 533 _c
374 533 435 508 477 460 _c
}_e{519 412 540 342 542 250 _c
436 302 _m
434 362 421 408 397 439 _c
373 469 340 485 296 485 _c
254 485 222 469 198 438 _c
174 407 160 362 155 302 _c
436 302 _l
_cl}_e}_d
/f{{370 0 36 0 430 760 _sc
430 637 _m
383 637 _l
382 661 375 680 362 693 _c
348 705 329 712 303 712 _c
269 712 246 702 232 684 _c
218 666 212 633 212 586 _c
212 519 _l
357 519 _l
357 467 _l
212 467 _l
212 52 _l
327 52 _l
327 0 _l
36 0 _l
36 52 _l
122 52 _l
122 467 _l
36 467 _l
36 519 _l
122 519 _l
122 584 _l
122 642 137 685 167 715 _c
}_e{197 745 241 760 300 760 _c
322 760 343 758 365 754 _c
387 750 408 744 430 736 _c
430 637 _l
_cl}_e}_d
/i{320 0 36 0 297 736 _sc
97 680 _m
97 695 102 708 113 719 _c
124 730 137 736 153 736 _c
167 736 180 730 191 719 _c
202 708 208 695 208 680 _c
208 664 202 651 192 641 _c
181 630 168 625 153 625 _c
137 625 124 630 113 641 _c
102 651 97 664 97 680 _c
212 52 _m
297 52 _l
297 0 _l
36 0 _l
36 52 _l
122 52 _l
122 467 _l
36 467 _l
36 519 _l
212 519 _l
212 52 _l
_cl}_d
/l{320 0 29 0 290 760 _sc
205 52 _m
290 52 _l
290 0 _l
29 0 _l
29 52 _l
115 52 _l
115 708 _l
29 708 _l
29 760 _l
205 760 _l
205 52 _l
_cl}_d
/n{{644 0 36 0 616 533 _sc
41 0 _m
41 52 _l
122 52 _l
122 467 _l
36 467 _l
36 519 _l
212 519 _l
212 427 _l
228 461 250 488 276 506 _c
302 524 333 533 369 533 _c
426 533 468 516 495 484 _c
522 451 536 400 536 330 _c
536 52 _l
616 52 _l
616 0 _l
368 0 _l
368 52 _l
446 52 _l
446 302 _l
446 365 438 408 422 432 _c
406 456 379 468 340 468 _c
}_e{298 468 266 452 244 422 _c
222 391 212 347 212 289 _c
212 52 _l
290 52 _l
290 0 _l
41 0 _l
_cl}_e}_d
/o{602 0 50 -13 552 533 _sc
301 34 _m
349 34 385 53 410 91 _c
434 129 447 185 447 260 _c
447 334 434 390 410 428 _c
385 466 349 485 301 485 _c
253 485 216 466 192 428 _c
167 390 155 334 155 260 _c
155 185 167 129 192 91 _c
216 53 253 34 301 34 _c
301 -13 _m
225 -13 165 11 119 61 _c
73 111 50 177 50 260 _c
50 342 72 408 118 458 _c
164 508 225 533 301 533 _c
377 533 437 508 483 458 _c
529 408 552 342 552 260 _c
552 177 529 111 483 61 _c
437 11 377 -13 301 -13 _c
_cl}_d
/p{{640 0 29 -207 590 533 _sc
205 285 _m
205 234 _l
205 171 217 123 241 91 _c
265 58 299 42 345 42 _c
391 42 425 60 449 97 _c
473 133 485 188 485 260 _c
485 332 473 386 449 422 _c
425 458 391 477 345 477 _c
299 477 265 460 241 427 _c
217 394 205 347 205 285 _c
115 467 _m
29 467 _l
29 519 _l
205 519 _l
205 438 _l
222 470 244 494 272 510 _c
299 525 333 533 373 533 _c
}_e{437 533 489 507 529 457 _c
569 407 590 341 590 260 _c
590 178 569 112 529 62 _c
489 12 437 -13 373 -13 _c
333 -13 299 -5 272 9 _c
244 24 222 48 205 81 _c
205 -155 _l
290 -155 _l
290 -207 _l
29 -207 _l
29 -155 _l
115 -155 _l
115 467 _l
_cl}_e}_d
/r{478 0 36 0 478 533 _sc
478 520 _m
478 390 _l
426 390 _l
424 416 417 435 405 448 _c
392 460 373 467 349 467 _c
305 467 271 451 247 421 _c
223 390 212 346 212 289 _c
212 52 _l
316 52 _l
316 0 _l
41 0 _l
41 52 _l
122 52 _l
122 468 _l
36 468 _l
36 519 _l
212 519 _l
212 427 _l
229 463 251 489 279 507 _c
307 524 341 533 381 533 _c
395 533 411 531 427 529 _c
443 527 460 524 478 520 _c
_cl}_d
/s{{513 0 56 -13 462 533 _sc
56 29 _m
56 150 _l
108 150 _l
109 111 121 82 144 63 _c
167 43 201 34 246 34 _c
286 34 317 41 338 57 _c
359 72 370 94 370 123 _c
370 145 362 164 347 178 _c
331 192 299 207 249 223 _c
184 245 _l
139 259 107 277 87 299 _c
67 320 57 347 57 381 _c
57 428 74 465 109 492 _c
144 519 192 533 254 533 _c
281 533 310 529 340 522 _c
}_e{370 515 402 505 434 491 _c
434 378 _l
382 378 _l
380 411 369 437 347 456 _c
325 475 295 485 257 485 _c
219 485 190 478 171 465 _c
151 451 142 431 142 405 _c
142 383 149 365 164 352 _c
178 339 208 326 252 312 _c
323 290 _l
372 274 407 255 429 232 _c
451 209 462 180 462 144 _c
462 94 443 56 405 28 _c
367 0 316 -13 250 -13 _c
216 -13 184 -9 152 -3 _c
}_e{120 3 88 14 56 29 _c
_cl}_e}_d
/t{402 0 29 -13 394 680 _sc
108 467 _m
29 467 _l
29 519 _l
108 519 _l
108 680 _l
198 680 _l
198 519 _l
367 519 _l
367 467 _l
198 467 _l
198 137 _l
198 93 202 64 211 52 _c
219 40 235 34 258 34 _c
281 34 298 41 309 55 _c
319 69 325 91 326 122 _c
394 122 _l
391 74 378 40 355 19 _c
332 -2 297 -13 250 -13 _c
198 -13 161 -1 140 21 _c
118 43 108 82 108 137 _c
108 467 _l
_cl}_d
/u{{644 0 27 -13 607 519 _sc
354 519 _m
522 519 _l
522 52 _l
607 52 _l
607 0 _l
432 0 _l
432 92 _l
415 57 393 31 367 13 _c
341 -4 310 -13 276 -13 _c
218 -13 175 3 148 35 _c
121 67 108 119 108 189 _c
108 467 _l
27 467 _l
27 519 _l
198 519 _l
198 217 _l
198 153 205 110 221 87 _c
237 63 264 52 304 52 _c
346 52 377 67 399 98 _c
421 128 432 173 432 231 _c
}_e{432 467 _l
354 467 _l
354 519 _l
_cl}_e}_d
/y{{565 0 -2 -221 562 519 _sc
216 -94 _m
250 -8 _l
56 467 _l
-2 467 _l
-2 519 _l
236 519 _l
236 467 _l
153 467 _l
299 110 _l
445 467 _l
367 467 _l
367 519 _l
562 519 _l
562 467 _l
504 467 _l
266 -116 _l
250 -156 232 -184 212 -199 _c
192 -213 164 -221 128 -221 _c
112 -221 97 -219 81 -217 _c
65 -214 48 -210 32 -206 _c
32 -107 _l
78 -107 _l
80 -129 85 -144 95 -154 _c
}_e{104 -164 118 -169 138 -169 _c
156 -169 170 -164 181 -154 _c
192 -144 204 -124 216 -94 _c
_cl}_e}_d
/minus{838 0 106 274 732 353 _sc
106 353 _m
732 353 _l
732 274 _l
106 274 _l
106 353 _l
_cl}_d
end readonly def

/BuildGlyph
 {exch begin
 CharStrings exch
 2 copy known not{pop /.notdef}if
 true 3 1 roll get exec
 end}_d

/BuildChar {
 1 index /Encoding get exch get
 1 index /BuildGlyph get exec
}_d

FontName currentdict end definefont pop
%!PS-Adobe-3.0 Resource-Font
%%Title: DejaVu Sans Oblique
%%Copyright: Copyright (c) 2003 by Bitstream, Inc. All Rights Reserved. Copyright (c) 2006 by Tavmjong Bah. All Rights Reserved. DejaVu changes are in public domain 
%%Creator: Converted from TrueType to type 3 by PPR
25 dict begin
/_d{bind def}bind def
/_m{moveto}_d
/_l{lineto}_d
/_cl{closepath eofill}_d
/_c{curveto}_d
/_sc{7 -1 roll{setcachedevice}{pop pop pop pop pop pop}ifelse}_d
/_e{exec}_d
/FontName /DejaVuSans-Oblique def
/PaintType 0 def
/FontMatrix[.001 0 0 .001 0 0]def
/FontBBox[-1016 -350 1659 1068]def
/FontType 3 def
/Encoding [ /J /M /sigma ] def
/FontInfo 10 dict dup begin
/FamilyName (DejaVu Sans) def
/FullName (DejaVu Sans Oblique) def
/Notice (Copyright (c) 2003 by Bitstream, Inc. All Rights Reserved. Copyright (c) 2006 by Tavmjong Bah. All Rights Reserved. DejaVu changes are in public domain ) def
/Weight (Oblique) def
/Version (Version 2.35) def
/ItalicAngle -11.0 def
/isFixedPitch false def
/UnderlinePosition -130 def
/UnderlineThickness 90 def
end readonly def
/CharStrings 4 dict dup begin
/.notdef 0 def
/J{295 0 -163 -199 266 729 _sc
167 729 _m
266 729 _l
134 51 _l
116 -37 87 -100 47 -140 _c
6 -179 -50 -199 -124 -199 _c
-163 -199 _l
-147 -116 _l
-116 -116 _l
-72 -116 -38 -103 -16 -78 _c
6 -53 23 -10 35 51 _c
167 729 _l
_cl}_d
/M{863 0 27 0 836 729 _sc
169 729 _m
317 729 _l
402 238 _l
684 729 _l
836 729 _l
694 0 _l
598 0 _l
722 639 _l
436 140 _l
340 140 _l
247 641 _l
123 0 _l
27 0 _l
169 729 _l
_cl}_d
/sigma{{634 0 57 -13 659 547 _sc
347 476 _m
297 476 255 458 222 422 _c
186 384 163 335 151 273 _c
138 207 142 156 163 118 _c
183 80 218 62 267 62 _c
314 62 355 81 391 119 _c
426 156 450 207 463 273 _c
474 332 470 382 450 422 _c
431 458 397 476 347 476 _c
361 547 _m
659 547 _l
642 457 _l
541 457 _l
566 406 572 345 559 273 _c
541 183 505 113 451 63 _c
396 12 329 -13 251 -13 _c
}_e{173 -13 116 12 82 63 _c
47 113 39 183 57 273 _c
74 363 110 433 164 484 _c
209 526 275 547 361 547 _c
_cl}_e}_d
end readonly def

/BuildGlyph
 {exch begin
 CharStrings exch
 2 copy known not{pop /.notdef}if
 true 3 1 roll get exec
 end}_d

/BuildChar {
 1 index /Encoding get exch get
 1 index /BuildGlyph get exec
}_d

FontName currentdict end definefont pop
%!PS-Adobe-3.0 Resource-Font
%%Title: DejaVu Sans
%%Copyright: Copyright (c) 2003 by Bitstream, Inc. All Rights Reserved. Copyright (c) 2006 by Tavmjong Bah. All Rights Reserved. DejaVu changes are in public domain 
%%Creator: Converted from TrueType to type 3 by PPR
25 dict begin
/_d{bind def}bind def
/_m{moveto}_d
/_l{lineto}_d
/_cl{closepath eofill}_d
/_c{curveto}_d
/_sc{7 -1 roll{setcachedevice}{pop pop pop pop pop pop}ifelse}_d
/_e{exec}_d
/FontName /DejaVuSans def
/PaintType 0 def
/FontMatrix[.001 0 0 .001 0 0]def
/FontBBox[-1021 -463 1793 1232]def
/FontType 3 def
/Encoding [ /macron /uni0304 ] def
/FontInfo 10 dict dup begin
/FamilyName (DejaVu Sans) def
/FullName (DejaVu Sans) def
/Notice (Copyright (c) 2003 by Bitstream, Inc. All Rights Reserved. Copyright (c) 2006 by Tavmjong Bah. All Rights Reserved. DejaVu changes are in public domain ) def
/Weight (Book) def
/Version (Version 2.35) def
/ItalicAngle 0.0 def
/isFixedPitch false def
/UnderlinePosition -130 def
/UnderlineThickness 90 def
end readonly def
/CharStrings 3 dict dup begin
/.notdef 0 def
/macron{500 0 104 673 396 745 _sc
104 745 _m
396 745 _l
396 673 _l
104 673 _l
104 745 _l
_cl}_d
/uni0304{0 0 -393 673 -101 745 _sc
gsave -497 0 translate
false CharStrings /macron get exec
grestore }_d
end readonly def

/BuildGlyph
 {exch begin
 CharStrings exch
 2 copy known not{pop /.notdef}if
 true 3 1 roll get exec
 end}_d

/BuildChar {
 1 index /Encoding get exch get
 1 index /BuildGlyph get exec
}_d

FontName currentdict end definefont pop
end
%%EndProlog
mpldict begin
90 252 translate
432 288 0 0 clipbox
gsave
0 0 m
432 0 l
432 288 l
0 288 l
cl
1.000 setgray
fill
grestore
gsave
51.7025 47.048 m
413.79 47.048 l
413.79 265.23 l
51.7025 265.23 l
cl
1.000 setgray
fill
grestore
1.200 setlinewidth
0 setlinejoin
0 setlinecap
[] 0 setdash
0.545 0.000 0.545 setrgbcolor
gsave
362.1 218.2 51.7 47.05 clipbox
433 47.048 m
392.668229 47.048 l
392.668229 47.503486 l
389.650833 47.503486 l
389.650833 47.048 l
377.58125 47.048 l
377.58125 47.503486 l
374.563854 47.503486 l
374.563854 47.048 l
362.494271 47.048 l
362.494271 47.503486 l
359.476875 47.503486 l
359.476875 47.048 l
332.320312 47.048 l
332.320312 47.503486 l
326.285521 47.503486 l
326.285521 49.32543 l
323.268125 49.32543 l
323.268125 47.503486 l
320.250729 47.503486 l
320.250729 49.780916 l
317.233333 49.780916 l
317.233333 50.691888 l
314.215937 50.691888 l
314.215937 51.60286 l
311.198542 51.60286 l
311.198542 53.88029 l
308.181146 53.88029 l
308.181146 54.335776 l
305.16375 54.335776 l
305.16375 56.613206 l
302.146354 56.613206 l
302.146354 61.168065 l
296.111562 61.168065 l
296.111562 63.445495 l
293.094167 63.445495 l
293.094167 66.178411 l
290.076771 66.178411 l
290.076771 72.099729 l
287.059375 72.099729 l
287.059375 73.466187 l
284.041979 73.466187 l
284.041979 71.188757 l
281.024583 71.188757 l
281.024583 82.575907 l
278.007187 82.575907 l
278.007187 91.23014 l
274.989792 91.23014 l
274.989792 103.072776 l
271.972396 103.072776 l
271.972396 126.758047 l
268.955 126.758047 l
268.955 154.998178 l
265.937604 154.998178 l
265.937604 161.830468 l
262.920208 161.830468 l
262.920208 195.53643 l
259.902812 195.53643 l
259.902812 224.232047 l
256.885417 224.232047 l
256.885417 241.996 l
253.868021 241.996 l
253.868021 216.944271 l
250.850625 216.944271 l
250.850625 218.766215 l
247.833229 218.766215 l
247.833229 197.81386 l
244.815833 197.81386 l
244.815833 190.526084 l
241.798437 190.526084 l
241.798437 168.207271 l
238.781042 168.207271 l
238.781042 161.830468 l
235.763646 161.830468 l
235.763646 145.888458 l
232.74625 145.888458 l
232.74625 136.778739 l
229.728854 136.778739 l
229.728854 121.292215 l
226.711458 121.292215 l
226.711458 102.61729 l
223.694062 102.61729 l
223.694062 104.89472 l
220.676667 104.89472 l
220.676667 96.695972 l
217.659271 96.695972 l
217.659271 101.706318 l
214.641875 101.706318 l
214.641875 75.288131 l
211.624479 75.288131 l
211.624479 73.010701 l
208.607083 73.010701 l
208.607083 69.366813 l
205.589687 69.366813 l
205.589687 73.466187 l
202.572292 73.466187 l
202.572292 65.722925 l
199.554896 65.722925 l
199.554896 68.000355 l
196.5375 68.000355 l
196.5375 56.613206 l
193.520104 56.613206 l
193.520104 59.801608 l
190.502708 59.801608 l
190.502708 58.43515 l
187.485312 58.43515 l
187.485312 53.88029 l
184.467917 53.88029 l
184.467917 51.147374 l
181.450521 51.147374 l
181.450521 54.791262 l
178.433125 54.791262 l
178.433125 52.969318 l
172.398333 52.969318 l
172.398333 50.691888 l
169.380937 50.691888 l
169.380937 48.869944 l
166.363542 48.869944 l
166.363542 50.691888 l
163.346146 50.691888 l
163.346146 50.236402 l
160.32875 50.236402 l
160.32875 47.958972 l
157.311354 47.958972 l
157.311354 48.869944 l
154.293958 48.869944 l
154.293958 47.503486 l
151.276562 47.503486 l
151.276562 47.958972 l
148.259167 47.958972 l
148.259167 47.503486 l
145.241771 47.503486 l
145.241771 48.414458 l
142.224375 48.414458 l
142.224375 47.958972 l
136.189583 47.958972 l
136.189583 48.414458 l
133.172187 48.414458 l
133.172187 48.869944 l
130.154792 48.869944 l
130.154792 47.958972 l
127.137396 47.958972 l
127.137396 48.414458 l
124.12 48.414458 l
124.12 47.048 l
118.085208 47.048 l
118.085208 47.958972 l
112.050417 47.958972 l
112.050417 48.414458 l
106.015625 48.414458 l
106.015625 47.503486 l
102.998229 47.503486 l
102.998229 47.958972 l
99.980833 47.958972 l
99.980833 47.048 l
96.963437 47.048 l
96.963437 47.503486 l
87.91125 47.503486 l
87.91125 47.048 l
81.876458 47.048 l
81.876458 47.958972 l
78.859062 47.958972 l
78.859062 47.503486 l
75.841667 47.503486 l
75.841667 47.958972 l
72.824271 47.958972 l
72.824271 47.503486 l
69.806875 47.503486 l
69.806875 47.958972 l
66.789479 47.958972 l
66.789479 47.503486 l
63.772083 47.503486 l
63.772083 47.048 l
54.719896 47.048 l
54.719896 47.958972 l
51.7025 47.958972 l
51.7025 47.503486 l
42.650312 47.503486 l
42.650312 47.048 l
-1 47.048 l
-1 47.048 l
stroke
grestore
[4.44 1.92] 0 setdash
0.000 0.545 0.545 setrgbcolor
gsave
362.1 218.2 51.7 47.05 clipbox
433 47.048 m
338.355104 47.048 l
338.355104 53.541512 l
335.337708 53.541512 l
335.337708 50.294756 l
332.320312 50.294756 l
332.320312 47.048 l
320.250729 47.048 l
320.250729 50.294756 l
317.233333 50.294756 l
317.233333 47.048 l
314.215937 47.048 l
314.215937 53.541512 l
305.16375 53.541512 l
305.16375 56.788268 l
302.146354 56.788268 l
302.146354 60.035024 l
299.128958 60.035024 l
299.128958 66.528536 l
293.094167 66.528536 l
293.094167 73.022048 l
284.041979 73.022048 l
284.041979 69.775292 l
278.007187 69.775292 l
278.007187 108.736363 l
274.989792 108.736363 l
274.989792 86.009071 l
271.972396 86.009071 l
271.972396 105.489607 l
268.955 105.489607 l
268.955 79.51556 l
265.937604 79.51556 l
265.937604 105.489607 l
262.920208 105.489607 l
262.920208 121.723387 l
259.902812 121.723387 l
259.902812 144.450679 l
256.885417 144.450679 l
256.885417 147.697435 l
253.868021 147.697435 l
253.868021 196.398774 l
250.850625 196.398774 l
250.850625 167.17797 l
247.833229 167.17797 l
247.833229 254.840381 l
244.815833 254.840381 l
244.815833 225.619577 l
241.798437 225.619577 l
241.798437 238.606601 l
238.781042 238.606601 l
238.781042 196.398774 l
235.763646 196.398774 l
235.763646 180.164994 l
232.74625 180.164994 l
232.74625 189.905262 l
229.728854 189.905262 l
229.728854 157.437702 l
226.711458 157.437702 l
226.711458 147.697435 l
223.694062 147.697435 l
223.694062 118.476631 l
220.676667 118.476631 l
220.676667 124.970143 l
217.659271 124.970143 l
217.659271 115.229875 l
214.641875 115.229875 l
214.641875 86.009071 l
211.624479 86.009071 l
211.624479 82.762315 l
208.607083 82.762315 l
208.607083 76.268804 l
199.554896 76.268804 l
199.554896 66.528536 l
193.520104 66.528536 l
193.520104 50.294756 l
190.502708 50.294756 l
190.502708 63.28178 l
187.485312 63.28178 l
187.485312 76.268804 l
184.467917 76.268804 l
184.467917 60.035024 l
181.450521 60.035024 l
181.450521 53.541512 l
172.398333 53.541512 l
172.398333 50.294756 l
169.380937 50.294756 l
169.380937 47.048 l
163.346146 47.048 l
163.346146 50.294756 l
157.311354 50.294756 l
157.311354 47.048 l
136.189583 47.048 l
136.189583 50.294756 l
133.172187 50.294756 l
133.172187 47.048 l
-1 47.048 l
-1 47.048 l
stroke
grestore
[7.68 1.92 1.2 1.92] 0 setdash
1.000 0.549 0.000 setrgbcolor
gsave
362.1 218.2 51.7 47.05 clipbox
433 47.048 m
383.616042 47.048 l
383.616042 48.332381 l
380.598646 48.332381 l
380.598646 47.048 l
377.58125 47.048 l
377.58125 48.332381 l
374.563854 48.332381 l
374.563854 47.048 l
371.546458 47.048 l
371.546458 48.332381 l
368.529062 48.332381 l
368.529062 47.048 l
359.476875 47.048 l
359.476875 48.332381 l
356.459479 48.332381 l
356.459479 49.616761 l
353.442083 49.616761 l
353.442083 47.048 l
347.407292 47.048 l
347.407292 50.901142 l
344.389896 50.901142 l
344.389896 48.332381 l
338.355104 48.332381 l
338.355104 50.901142 l
329.302917 50.901142 l
329.302917 48.332381 l
326.285521 48.332381 l
326.285521 53.469903 l
317.233333 53.469903 l
317.233333 50.901142 l
314.215937 50.901142 l
314.215937 57.323046 l
311.198542 57.323046 l
311.198542 59.891807 l
305.16375 59.891807 l
305.16375 54.754284 l
302.146354 54.754284 l
302.146354 67.598091 l
299.128958 67.598091 l
299.128958 58.607426 l
296.111562 58.607426 l
296.111562 68.882472 l
293.094167 68.882472 l
293.094167 72.735614 l
290.076771 72.735614 l
290.076771 57.323046 l
287.059375 57.323046 l
287.059375 68.882472 l
284.041979 68.882472 l
284.041979 79.157517 l
281.024583 79.157517 l
281.024583 90.716944 l
278.007187 90.716944 l
278.007187 84.29504 l
274.989792 84.29504 l
274.989792 90.716944 l
271.972396 90.716944 l
271.972396 74.019995 l
268.955 74.019995 l
268.955 95.854467 l
265.937604 95.854467 l
265.937604 83.01066 l
262.920208 83.01066 l
262.920208 88.148182 l
259.902812 88.148182 l
259.902812 102.27637 l
256.885417 102.27637 l
256.885417 92.001324 l
253.868021 92.001324 l
253.868021 106.129512 l
250.850625 106.129512 l
250.850625 103.560751 l
247.833229 103.560751 l
247.833229 111.267035 l
244.815833 111.267035 l
244.815833 112.551416 l
241.798437 112.551416 l
241.798437 107.413893 l
238.781042 107.413893 l
238.781042 140.807791 l
235.763646 140.807791 l
235.763646 115.120177 l
232.74625 115.120177 l
232.74625 106.129512 l
229.728854 106.129512 l
229.728854 112.551416 l
226.711458 112.551416 l
226.711458 120.2577 l
223.694062 120.2577 l
223.694062 131.817126 l
220.676667 131.817126 l
220.676667 112.551416 l
217.659271 112.551416 l
217.659271 124.110842 l
211.624479 124.110842 l
211.624479 121.54208 l
208.607083 121.54208 l
208.607083 111.267035 l
205.589687 111.267035 l
205.589687 102.27637 l
202.572292 102.27637 l
202.572292 108.698274 l
199.554896 108.698274 l
199.554896 115.120177 l
196.5375 115.120177 l
196.5375 118.973319 l
193.520104 118.973319 l
193.520104 98.423228 l
190.502708 98.423228 l
190.502708 94.570086 l
187.485312 94.570086 l
187.485312 112.551416 l
184.467917 112.551416 l
184.467917 102.27637 l
181.450521 102.27637 l
181.450521 80.441898 l
178.433125 80.441898 l
178.433125 76.588756 l
175.415729 76.588756 l
175.415729 97.138847 l
172.398333 97.138847 l
172.398333 92.001324 l
169.380937 92.001324 l
169.380937 85.579421 l
166.363542 85.579421 l
166.363542 81.726279 l
163.346146 81.726279 l
163.346146 80.441898 l
160.32875 80.441898 l
160.32875 84.29504 l
157.311354 84.29504 l
157.311354 81.726279 l
154.293958 81.726279 l
154.293958 71.451233 l
151.276562 71.451233 l
151.276562 70.166853 l
148.259167 70.166853 l
148.259167 59.891807 l
145.241771 59.891807 l
145.241771 57.323046 l
142.224375 57.323046 l
142.224375 59.891807 l
139.206979 59.891807 l
139.206979 63.744949 l
136.189583 63.744949 l
136.189583 52.185523 l
133.172187 52.185523 l
133.172187 58.607426 l
130.154792 58.607426 l
130.154792 62.460568 l
127.137396 62.460568 l
127.137396 49.616761 l
124.12 49.616761 l
124.12 52.185523 l
121.102604 52.185523 l
121.102604 54.754284 l
118.085208 54.754284 l
118.085208 53.469903 l
115.067812 53.469903 l
115.067812 50.901142 l
112.050417 50.901142 l
112.050417 49.616761 l
106.015625 49.616761 l
106.015625 53.469903 l
102.998229 53.469903 l
102.998229 50.901142 l
99.980833 50.901142 l
99.980833 54.754284 l
96.963437 54.754284 l
96.963437 50.901142 l
93.946042 50.901142 l
93.946042 47.048 l
87.91125 47.048 l
87.91125 48.332381 l
84.893854 48.332381 l
84.893854 47.048 l
69.806875 47.048 l
69.806875 48.332381 l
60.754687 48.332381 l
60.754687 47.048 l
54.719896 47.048 l
54.719896 48.332381 l
48.685104 48.332381 l
48.685104 47.048 l
30.580729 47.048 l
30.580729 48.332381 l
27.563333 48.332381 l
27.563333 47.048 l
-1 47.048 l
-1 47.048 l
stroke
grestore
1.000 setlinewidth
1 setlinejoin
[] 0 setdash
0.000 setgray
gsave
/o {
gsave
newpath
translate
1.0 setlinewidth
1 setlinejoin
0 setlinecap
0 0 m
0 -3.5 l

gsave
0.000 setgray
fill
grestore
stroke
grestore
} bind def
413.79 47.048 o
grestore
/DejaVuSerif findfont
10.000 scalefont
setfont
gsave
406.422813 32.454250 translate
0.000000 rotate
0.000000 0.000000 m /minus glyphshow
8.378906 0.000000 m /nine glyphshow
grestore
gsave
/o {
gsave
newpath
translate
1.0 setlinewidth
1 setlinejoin
0 setlinecap
0 0 m
0 -3.5 l

gsave
0.000 setgray
fill
grestore
stroke
grestore
} bind def
353.442 47.048 o
grestore
gsave
346.074896 32.454250 translate
0.000000 rotate
0.000000 0.000000 m /minus glyphshow
8.378906 0.000000 m /eight glyphshow
grestore
gsave
/o {
gsave
newpath
translate
1.0 setlinewidth
1 setlinejoin
0 setlinecap
0 0 m
0 -3.5 l

gsave
0.000 setgray
fill
grestore
stroke
grestore
} bind def
293.094 47.048 o
grestore
gsave
285.726979 32.454250 translate
0.000000 rotate
0.000000 0.000000 m /minus glyphshow
8.378906 0.000000 m /seven glyphshow
grestore
gsave
/o {
gsave
newpath
translate
1.0 setlinewidth
1 setlinejoin
0 setlinecap
0 0 m
0 -3.5 l

gsave
0.000 setgray
fill
grestore
stroke
grestore
} bind def
232.746 47.048 o
grestore
gsave
225.379063 32.454250 translate
0.000000 rotate
0.000000 0.000000 m /minus glyphshow
8.378906 0.000000 m /six glyphshow
grestore
gsave
/o {
gsave
newpath
translate
1.0 setlinewidth
1 setlinejoin
0 setlinecap
0 0 m
0 -3.5 l

gsave
0.000 setgray
fill
grestore
stroke
grestore
} bind def
172.398 47.048 o
grestore
gsave
165.031146 32.454250 translate
0.000000 rotate
0.000000 0.000000 m /minus glyphshow
8.378906 0.000000 m /five glyphshow
grestore
gsave
/o {
gsave
newpath
translate
1.0 setlinewidth
1 setlinejoin
0 setlinecap
0 0 m
0 -3.5 l

gsave
0.000 setgray
fill
grestore
stroke
grestore
} bind def
112.05 47.048 o
grestore
gsave
104.683229 32.454250 translate
0.000000 rotate
0.000000 0.000000 m /minus glyphshow
8.378906 0.000000 m /four glyphshow
grestore
gsave
/o {
gsave
newpath
translate
1.0 setlinewidth
1 setlinejoin
0 setlinecap
0 0 m
0 -3.5 l

gsave
0.000 setgray
fill
grestore
stroke
grestore
} bind def
51.7025 47.048 o
grestore
gsave
44.335313 32.454250 translate
0.000000 rotate
0.000000 0.000000 m /minus glyphshow
8.378906 0.000000 m /three glyphshow
grestore
gsave
224.746250 15.376125 translate
0.000000 rotate
/DejaVuSans-Oblique findfont
14.0 scalefont
setfont
0.000000 0.796875 moveto
/M glyphshow

/DejaVuSans-Oblique findfont
9.799999999999999 scalefont
setfont
12.079102 -1.500000 moveto
/J glyphshow


grestore
gsave
/o {
gsave
newpath
translate
1.0 setlinewidth
1 setlinejoin
0 setlinecap
0 0 m
-3.5 0 l

gsave
0.000 setgray
fill
grestore
stroke
grestore
} bind def
51.7025 47.048 o
grestore
gsave
28.796250 43.251125 translate
0.000000 rotate
0.000000 0.000000 m /zero glyphshow
6.362305 0.000000 m /period glyphshow
9.541016 0.000000 m /zero glyphshow
grestore
gsave
/o {
gsave
newpath
translate
1.0 setlinewidth
1 setlinejoin
0 setlinecap
0 0 m
-3.5 0 l

gsave
0.000 setgray
fill
grestore
stroke
grestore
} bind def
51.7025 74.4182 o
grestore
gsave
28.796250 70.621278 translate
0.000000 rotate
0.000000 0.000000 m /zero glyphshow
6.362305 0.000000 m /period glyphshow
9.541016 0.000000 m /two glyphshow
grestore
gsave
/o {
gsave
newpath
translate
1.0 setlinewidth
1 setlinejoin
0 setlinecap
0 0 m
-3.5 0 l

gsave
0.000 setgray
fill
grestore
stroke
grestore
} bind def
51.7025 101.788 o
grestore
gsave
28.796250 97.991430 translate
0.000000 rotate
0.000000 0.000000 m /zero glyphshow
6.362305 0.000000 m /period glyphshow
9.541016 0.000000 m /four glyphshow
grestore
gsave
/o {
gsave
newpath
translate
1.0 setlinewidth
1 setlinejoin
0 setlinecap
0 0 m
-3.5 0 l

gsave
0.000 setgray
fill
grestore
stroke
grestore
} bind def
51.7025 129.158 o
grestore
gsave
28.796250 125.361583 translate
0.000000 rotate
0.000000 0.000000 m /zero glyphshow
6.362305 0.000000 m /period glyphshow
9.541016 0.000000 m /six glyphshow
grestore
gsave
/o {
gsave
newpath
translate
1.0 setlinewidth
1 setlinejoin
0 setlinecap
0 0 m
-3.5 0 l

gsave
0.000 setgray
fill
grestore
stroke
grestore
} bind def
51.7025 156.529 o
grestore
gsave
28.796250 152.731736 translate
0.000000 rotate
0.000000 0.000000 m /zero glyphshow
6.362305 0.000000 m /period glyphshow
9.541016 0.000000 m /eight glyphshow
grestore
gsave
/o {
gsave
newpath
translate
1.0 setlinewidth
1 setlinejoin
0 setlinecap
0 0 m
-3.5 0 l

gsave
0.000 setgray
fill
grestore
stroke
grestore
} bind def
51.7025 183.899 o
grestore
gsave
28.796250 180.101888 translate
0.000000 rotate
0.000000 0.000000 m /one glyphshow
6.362305 0.000000 m /period glyphshow
9.541016 0.000000 m /zero glyphshow
grestore
gsave
/o {
gsave
newpath
translate
1.0 setlinewidth
1 setlinejoin
0 setlinecap
0 0 m
-3.5 0 l

gsave
0.000 setgray
fill
grestore
stroke
grestore
} bind def
51.7025 211.269 o
grestore
gsave
28.796250 207.472041 translate
0.000000 rotate
0.000000 0.000000 m /one glyphshow
6.362305 0.000000 m /period glyphshow
9.541016 0.000000 m /two glyphshow
grestore
gsave
/o {
gsave
newpath
translate
1.0 setlinewidth
1 setlinejoin
0 setlinecap
0 0 m
-3.5 0 l

gsave
0.000 setgray
fill
grestore
stroke
grestore
} bind def
51.7025 238.639 o
grestore
gsave
28.796250 234.842194 translate
0.000000 rotate
0.000000 0.000000 m /one glyphshow
6.362305 0.000000 m /period glyphshow
9.541016 0.000000 m /four glyphshow
grestore
/DejaVuSerif findfont
14.000 scalefont
setfont
gsave
21.686875 35.084313 translate
90.000000 rotate
0.000000 0.000000 m /p glyphshow
8.961914 0.000000 m /r glyphshow
15.654297 0.000000 m /o glyphshow
24.083008 0.000000 m /b glyphshow
33.044922 0.000000 m /a glyphshow
41.391602 0.000000 m /b glyphshow
50.353516 0.000000 m /i glyphshow
54.831055 0.000000 m /l glyphshow
59.308594 0.000000 m /i glyphshow
63.786133 0.000000 m /t glyphshow
69.412109 0.000000 m /y glyphshow
77.321289 0.000000 m /space glyphshow
81.771484 0.000000 m /d glyphshow
90.733398 0.000000 m /e glyphshow
99.018555 0.000000 m /n glyphshow
108.035156 0.000000 m /s glyphshow
115.219727 0.000000 m /i glyphshow
119.697266 0.000000 m /t glyphshow
125.323242 0.000000 m /y glyphshow
133.232422 0.000000 m /space glyphshow
137.682617 0.000000 m /f glyphshow
142.864258 0.000000 m /u glyphshow
151.880859 0.000000 m /n glyphshow
160.897461 0.000000 m /c glyphshow
168.738281 0.000000 m /t glyphshow
174.364258 0.000000 m /i glyphshow
178.841797 0.000000 m /o glyphshow
187.270508 0.000000 m /n glyphshow
196.287109 0.000000 m /space glyphshow
200.737305 0.000000 m /parenleft glyphshow
206.199219 0.000000 m /P glyphshow
215.619141 0.000000 m /D glyphshow
226.843750 0.000000 m /F glyphshow
236.557617 0.000000 m /parenright glyphshow
grestore
2 setlinecap
0.545 0.000 0.545 setrgbcolor
gsave
362.1 218.2 51.7 47.05 clipbox
433 47.048 m
332.320312 47.130308 l
326.285521 47.28654 l
320.250729 47.685611 l
317.233333 48.059306 l
314.215937 48.619914 l
311.198542 49.442389 l
308.181146 50.622211 l
305.16375 52.276598 l
302.146354 54.543659 l
299.128958 57.578619 l
296.111562 61.546316 l
293.094167 66.609437 l
290.076771 72.912465 l
287.059375 80.561963 l
284.041979 89.604668 l
281.024583 100.005686 l
278.007187 111.629767 l
274.989792 124.228998 l
265.937604 163.736772 l
262.920208 175.667767 l
259.902812 185.98116 l
256.885417 194.117852 l
253.868021 199.615117 l
250.850625 202.150134 l
247.833229 201.571362 l
244.815833 197.913547 l
241.798437 191.394261 l
238.781042 182.392481 l
235.763646 171.412123 l
232.74625 159.035413 l
223.694062 119.476384 l
220.676667 107.201525 l
217.659271 96.007042 l
214.641875 86.098292 l
211.624479 77.571562 l
208.607083 70.42914 l
205.589687 64.599558 l
202.572292 59.959754 l
199.554896 56.356385 l
196.5375 53.624321 l
193.520104 51.601142 l
190.502708 50.137292 l
187.485312 49.102122 l
184.467917 48.386484 l
181.450521 47.902711 l
178.433125 47.582866 l
172.398333 47.245131 l
163.346146 47.085903 l
139.206979 47.048192 l
-1 47.048 l
-1 47.048 l
stroke
grestore
0 setlinecap
[3.7 1.6] 0 setdash
0.000 0.545 0.545 setrgbcolor
gsave
362.1 218.2 51.7 47.05 clipbox
433 47.048 m
326.285521 47.155841 l
320.250729 47.342131 l
314.215937 47.792352 l
311.198542 48.199337 l
308.181146 48.795821 l
305.16375 49.652124 l
302.146354 50.856 l
299.128958 52.513154 l
296.111562 54.746007 l
293.094167 57.69003 l
290.076771 61.487129 l
287.059375 66.275722 l
284.041979 72.177566 l
281.024583 79.281872 l
278.007187 87.627837 l
274.989792 97.187321 l
271.972396 107.849868 l
268.955 119.412525 l
259.902812 156.085047 l
256.885417 167.458453 l
253.868021 177.552241 l
250.850625 185.86907 l
247.833229 191.977394 l
244.815833 195.548493 l
241.798437 196.385762 l
238.781042 194.442647 l
235.763646 189.826925 l
232.74625 182.79081 l
229.728854 173.708118 l
226.711458 163.041397 l
223.694062 151.30302 l
214.641875 114.704583 l
211.624479 103.470857 l
208.607083 93.229753 l
205.589687 84.146478 l
202.572292 76.297072 l
199.554896 69.680807 l
196.5375 64.236385 l
193.520104 59.859561 l
190.502708 56.420153 l
187.485312 53.776945 l
184.467917 51.7896 l
181.450521 50.32724 l
178.433125 49.273829 l
175.415729 48.530794 l
172.398333 48.017483 l
169.380937 47.670114 l
163.346146 47.290181 l
154.293958 47.099118 l
133.172187 47.048704 l
-1 47.048 l
-1 47.048 l
stroke
grestore
[6.4 1.6 1 1.6] 0 setdash
1.000 0.549 0.000 setrgbcolor
gsave
362.1 218.2 51.7 47.05 clipbox
433 47.048237 m
374.563854 47.144567 l
359.476875 47.383044 l
350.424687 47.712712 l
341.3725 48.307479 l
335.337708 48.927892 l
329.302917 49.797144 l
323.268125 50.986992 l
317.233333 52.577622 l
314.215937 53.549621 l
311.198542 54.653514 l
308.181146 55.899487 l
305.16375 57.297072 l
302.146354 58.854837 l
299.128958 60.580042 l
296.111562 62.478279 l
293.094167 64.553113 l
290.076771 66.805717 l
287.059375 69.234527 l
284.041979 71.834921 l
281.024583 74.598947 l
274.989792 80.568197 l
268.955 87.005601 l
250.850625 106.918765 l
247.833229 109.957538 l
244.815833 112.813617 l
241.798437 115.448928 l
238.781042 117.827225 l
235.763646 119.914902 l
232.74625 121.681794 l
229.728854 123.10189 l
226.711458 124.153978 l
223.694062 124.822167 l
220.676667 125.09629 l
217.659271 124.972158 l
214.641875 124.451669 l
211.624479 123.542759 l
208.607083 122.259199 l
205.589687 120.620253 l
202.572292 118.650188 l
199.554896 116.377687 l
196.5375 113.835147 l
193.520104 111.057914 l
190.502708 108.08347 l
184.467917 101.698547 l
166.363542 81.751082 l
160.32875 75.681308 l
157.311354 72.858375 l
154.293958 70.195165 l
151.276562 67.700945 l
148.259167 65.381564 l
145.241771 63.239702 l
142.224375 61.275179 l
139.206979 59.485291 l
136.189583 57.865167 l
133.172187 56.408131 l
130.154792 55.10607 l
127.137396 53.949776 l
124.12 52.929274 l
118.085208 51.253664 l
112.050417 49.994596 l
106.015625 49.07069 l
99.980833 48.408382 l
93.946042 47.944428 l
84.893854 47.509479 l
72.824271 47.225255 l
54.719896 47.084198 l
6.441562 47.048213 l
-1 47.048087 l
-1 47.048087 l
stroke
grestore
0.800 setlinewidth
0 setlinejoin
2 setlinecap
[] 0 setdash
0.000 setgray
gsave
51.7025 47.048 m
51.7025 265.23 l
stroke
grestore
gsave
413.79 47.048 m
413.79 265.23 l
stroke
grestore
gsave
51.7025 47.048 m
413.79 47.048 l
stroke
grestore
gsave
51.7025 265.23 m
413.79 265.23 l
stroke
grestore
1.000 setlinewidth
0 setlinecap
0.800 setgray
gsave
58.7025 200.23 m
227.7025 200.23 l
229.035833 200.23 229.7025 200.896667 229.7025 202.23 c
229.7025 258.23 l
229.7025 259.563333 229.035833 260.23 227.7025 260.23 c
58.7025 260.23 l
57.369167 260.23 56.7025 259.563333 56.7025 258.23 c
56.7025 202.23 l
56.7025 200.896667 57.369167 200.23 58.7025 200.23 c
cl
gsave
1.000 setgray
fill
grestore
stroke
grestore
1 setlinejoin
2 setlinecap
[] 0 setdash
0.545 0.000 0.545 setrgbcolor
gsave
60.7025 249.73 m
80.7025 249.73 l
stroke
grestore
0.000 setgray
gsave
88.702500 246.230000 translate
0.000000 rotate
/DejaVuSerif findfont
10.0 scalefont
setfont
0.000000 0.734375 moveto
/L glyphshow

6.640625 0.734375 moveto
/M glyphshow

16.879883 0.734375 moveto
/C glyphshow

24.531250 0.734375 moveto
/space glyphshow

27.709961 0.734375 moveto
/bracketleft glyphshow

/DejaVuSans findfont
10.0 scalefont
setfont
39.721436 2.546875 moveto
/uni0304 glyphshow

/DejaVuSans-Oblique findfont
10.0 scalefont
setfont
31.611328 0.734375 moveto
/M glyphshow

/DejaVuSans-Oblique findfont
7.0 scalefont
setfont
40.334961 -0.906250 moveto
/J glyphshow

/DejaVuSerif findfont
10.0 scalefont
setfont
42.672852 0.734375 moveto
/equal glyphshow

51.051758 0.734375 moveto
/hyphen glyphshow

54.430664 0.734375 moveto
/six glyphshow

60.792969 0.734375 moveto
/period glyphshow

63.971680 0.734375 moveto
/two glyphshow

70.333984 0.734375 moveto
/eight glyphshow

76.696289 0.734375 moveto
/four glyphshow

83.058594 0.734375 moveto
/comma glyphshow

86.237305 0.734375 moveto
/space glyphshow

/DejaVuSans-Oblique findfont
10.0 scalefont
setfont
89.416016 0.734375 moveto
/sigma glyphshow

/DejaVuSerif findfont
10.0 scalefont
setfont
95.753906 0.734375 moveto
/equal glyphshow

104.132812 0.734375 moveto
/zero glyphshow

110.495117 0.734375 moveto
/period glyphshow

113.673828 0.734375 moveto
/three glyphshow

120.036133 0.734375 moveto
/five glyphshow

126.398438 0.734375 moveto
/two glyphshow

132.760742 0.734375 moveto
/bracketright glyphshow


grestore
0 setlinecap
[3.7 1.6] 0 setdash
0.000 0.545 0.545 setrgbcolor
gsave
60.7025 230.73 m
80.7025 230.73 l
stroke
grestore
0.000 setgray
gsave
88.702500 227.230000 translate
0.000000 rotate
/DejaVuSerif findfont
10.0 scalefont
setfont
0.000000 0.734375 moveto
/S glyphshow

6.850586 0.734375 moveto
/M glyphshow

17.089844 0.734375 moveto
/C glyphshow

24.741211 0.734375 moveto
/space glyphshow

27.919922 0.734375 moveto
/bracketleft glyphshow

/DejaVuSans findfont
10.0 scalefont
setfont
39.931396 2.546875 moveto
/uni0304 glyphshow

/DejaVuSans-Oblique findfont
10.0 scalefont
setfont
31.821289 0.734375 moveto
/M glyphshow

/DejaVuSans-Oblique findfont
7.0 scalefont
setfont
40.544922 -0.906250 moveto
/J glyphshow

/DejaVuSerif findfont
10.0 scalefont
setfont
42.882812 0.734375 moveto
/equal glyphshow

51.261719 0.734375 moveto
/hyphen glyphshow

54.640625 0.734375 moveto
/six glyphshow

61.002930 0.734375 moveto
/period glyphshow

64.181641 0.734375 moveto
/one glyphshow

70.543945 0.734375 moveto
/six glyphshow

76.906250 0.734375 moveto
/zero glyphshow

83.268555 0.734375 moveto
/comma glyphshow

86.447266 0.734375 moveto
/space glyphshow

/DejaVuSans-Oblique findfont
10.0 scalefont
setfont
89.625977 0.734375 moveto
/sigma glyphshow

/DejaVuSerif findfont
10.0 scalefont
setfont
95.963867 0.734375 moveto
/equal glyphshow

104.342773 0.734375 moveto
/zero glyphshow

110.705078 0.734375 moveto
/period glyphshow

113.883789 0.734375 moveto
/three glyphshow

120.246094 0.734375 moveto
/six glyphshow

126.608398 0.734375 moveto
/five glyphshow

132.970703 0.734375 moveto
/bracketright glyphshow


grestore
[6.4 1.6 1 1.6] 0 setdash
1.000 0.549 0.000 setrgbcolor
gsave
60.7025 211.73 m
80.7025 211.73 l
stroke
grestore
0.000 setgray
gsave
88.702500 208.230000 translate
0.000000 rotate
/DejaVuSerif findfont
10.0 scalefont
setfont
0.000000 0.734375 moveto
/M glyphshow

10.239258 0.734375 moveto
/W glyphshow

20.517578 0.734375 moveto
/space glyphshow

23.696289 0.734375 moveto
/bracketleft glyphshow

/DejaVuSans findfont
10.0 scalefont
setfont
35.707764 2.546875 moveto
/uni0304 glyphshow

/DejaVuSans-Oblique findfont
10.0 scalefont
setfont
27.597656 0.734375 moveto
/M glyphshow

/DejaVuSans-Oblique findfont
7.0 scalefont
setfont
36.321289 -0.906250 moveto
/J glyphshow

/DejaVuSerif findfont
10.0 scalefont
setfont
38.659180 0.734375 moveto
/equal glyphshow

47.038086 0.734375 moveto
/hyphen glyphshow

50.416992 0.734375 moveto
/five glyphshow

56.779297 0.734375 moveto
/period glyphshow

59.958008 0.734375 moveto
/seven glyphshow

66.320312 0.734375 moveto
/nine glyphshow

72.682617 0.734375 moveto
/one glyphshow

79.044922 0.734375 moveto
/comma glyphshow

82.223633 0.734375 moveto
/space glyphshow

/DejaVuSans-Oblique findfont
10.0 scalefont
setfont
85.402344 0.734375 moveto
/sigma glyphshow

/DejaVuSerif findfont
10.0 scalefont
setfont
91.740234 0.734375 moveto
/equal glyphshow

100.119141 0.734375 moveto
/zero glyphshow

106.481445 0.734375 moveto
/period glyphshow

109.660156 0.734375 moveto
/six glyphshow

116.022461 0.734375 moveto
/nine glyphshow

122.384766 0.734375 moveto
/nine glyphshow

128.747070 0.734375 moveto
/bracketright glyphshow


grestore

end
showpage
