%!PS-Adobe-3.0 EPSF-3.0
%%Title: ../figures/MW/CMD_Alksnis.eps
%%Creator: matplotlib version 3.1.0, http://matplotlib.org/
%%CreationDate: Tue Nov  9 11:31:51 2021
%%Orientation: portrait
%%BoundingBox: 90.0 252.0 522.0 540.0
%%EndComments
%%BeginProlog
/mpldict 10 dict def
mpldict begin
/m { moveto } bind def
/l { lineto } bind def
/r { rlineto } bind def
/c { curveto } bind def
/cl { closepath } bind def
/box {
m
1 index 0 r
0 exch r
neg 0 r
cl
} bind def
/clipbox {
box
clip
newpath
} bind def
%!PS-Adobe-3.0 Resource-Font
%%Title: DejaVu Serif
%%Copyright: Copyright (c) 2003 by Bitstream, Inc. All Rights Reserved. DejaVu changes are in public domain 
%%Creator: Converted from TrueType to type 3 by PPR
25 dict begin
/_d{bind def}bind def
/_m{moveto}_d
/_l{lineto}_d
/_cl{closepath eofill}_d
/_c{curveto}_d
/_sc{7 -1 roll{setcachedevice}{pop pop pop pop pop pop}ifelse}_d
/_e{exec}_d
/FontName /DejaVuSerif def
/PaintType 0 def
/FontMatrix[.001 0 0 .001 0 0]def
/FontBBox[-770 -347 2105 1109]def
/FontType 3 def
/Encoding [ /period /zero /one /two /three /four /five /six /seven /eight /nine /minus ] def
/FontInfo 10 dict dup begin
/FamilyName (DejaVu Serif) def
/FullName (DejaVu Serif) def
/Notice (Copyright (c) 2003 by Bitstream, Inc. All Rights Reserved. DejaVu changes are in public domain ) def
/Weight (Book) def
/Version (Version 2.35) def
/ItalicAngle 0.0 def
/isFixedPitch false def
/UnderlinePosition -130 def
/UnderlineThickness 90 def
end readonly def
/CharStrings 13 dict dup begin
/.notdef 0 def
/period{318 0 94 -13 224 116 _sc
94 51 _m
94 69 100 84 112 97 _c
124 109 140 116 159 116 _c
177 116 192 109 205 97 _c
217 84 224 69 224 51 _c
224 33 217 17 205 5 _c
192 -7 177 -13 159 -13 _c
140 -13 124 -7 112 5 _c
100 17 94 32 94 51 _c
_cl}_d
/zero{636 0 66 -13 570 742 _sc
318 34 _m
368 34 405 61 430 116 _c
454 170 467 253 467 364 _c
467 474 454 557 430 612 _c
405 666 368 694 318 694 _c
268 694 230 666 206 612 _c
181 557 169 474 169 364 _c
169 253 181 170 206 116 _c
230 61 268 34 318 34 _c
318 -13 _m
238 -13 176 20 132 86 _c
88 152 66 244 66 364 _c
66 483 88 576 132 642 _c
176 708 238 742 318 742 _c
397 742 459 708 503 642 _c
547 576 570 483 570 364 _c
570 244 547 152 503 86 _c
459 20 397 -13 318 -13 _c
_cl}_d
/one{636 0 122 0 494 742 _sc
142 0 _m
142 52 _l
269 52 _l
269 658 _l
122 563 _l
122 627 _l
300 742 _l
367 742 _l
367 52 _l
494 52 _l
494 0 _l
142 0 _l
_cl}_d
/two{{636 0 68 0 538 742 _sc
128 555 _m
73 555 _l
73 685 _l
107 703 142 717 178 727 _c
213 737 248 742 282 742 _c
358 742 418 723 462 687 _c
506 650 528 600 528 537 _c
528 465 478 380 378 281 _c
370 273 365 268 361 264 _c
177 80 _l
481 80 _l
481 170 _l
538 170 _l
538 0 _l
68 0 _l
68 53 _l
289 274 _l
337 322 372 367 393 408 _c
414 449 425 492 425 537 _c
}_e{425 586 412 624 386 652 _c
360 680 325 694 281 694 _c
234 694 198 682 173 659 _c
147 636 132 601 128 555 _c
_cl}_e}_d
/three{{636 0 76 -13 562 742 _sc
97 698 _m
135 712 171 723 206 731 _c
241 738 274 742 305 742 _c
376 742 432 726 472 696 _c
512 665 532 622 532 568 _c
532 524 518 487 490 458 _c
462 428 423 408 373 398 _c
433 389 479 367 512 332 _c
545 297 562 252 562 197 _c
562 129 539 77 493 41 _c
447 5 382 -13 296 -13 _c
258 -13 220 -9 184 -1 _c
148 6 112 18 76 35 _c
76 177 _l
}_e{131 177 _l
134 129 150 94 178 70 _c
206 46 246 34 298 34 _c
348 34 387 48 416 77 _c
444 106 459 146 459 196 _c
459 253 444 296 414 326 _c
384 355 341 370 284 370 _c
238 370 _l
238 420 _l
262 420 _l
319 420 362 431 390 455 _c
418 479 433 514 433 562 _c
433 604 421 637 398 660 _c
374 682 341 694 297 694 _c
253 694 218 683 194 662 _c
170 641 156 610 152 570 _c
}_e{97 570 _l
97 698 _l
_cl}_e}_d
/four{636 0 31 0 586 742 _sc
349 247 _m
349 635 _l
100 247 _l
349 247 _l
564 0 _m
232 0 _l
232 52 _l
349 52 _l
349 195 _l
31 195 _l
31 248 _l
350 742 _l
447 742 _l
447 247 _l
586 247 _l
586 195 _l
447 195 _l
447 52 _l
564 52 _l
564 0 _l
_cl}_d
/five{{636 0 85 -13 559 729 _sc
503 729 _m
503 649 _l
169 649 _l
169 440 _l
185 452 205 460 228 466 _c
250 472 276 475 304 475 _c
382 475 444 453 490 409 _c
536 365 559 306 559 231 _c
559 153 536 93 490 51 _c
444 8 379 -13 296 -13 _c
262 -13 228 -9 193 -1 _c
157 6 121 18 85 35 _c
85 177 _l
140 177 _l
143 130 158 94 184 70 _c
210 46 248 34 296 34 _c
}_e{347 34 386 51 414 85 _c
442 119 456 167 456 231 _c
456 294 442 342 415 376 _c
387 410 348 427 296 427 _c
266 427 240 421 218 411 _c
196 401 176 385 159 363 _c
117 363 _l
117 729 _l
503 729 _l
_cl}_e}_d
/six{{636 0 67 -13 573 742 _sc
327 34 _m
373 34 408 50 433 84 _c
457 118 470 166 470 230 _c
470 293 457 341 433 375 _c
408 409 373 426 327 426 _c
280 426 244 409 220 377 _c
196 344 184 297 184 236 _c
184 171 196 121 221 86 _c
245 51 281 34 327 34 _c
168 401 _m
190 425 215 444 243 456 _c
271 468 302 474 338 474 _c
410 474 468 452 510 408 _c
552 364 573 305 573 230 _c
}_e{573 156 550 97 505 53 _c
459 9 399 -13 323 -13 _c
241 -13 177 17 133 78 _c
89 139 67 227 67 341 _c
67 468 93 567 145 637 _c
197 707 271 742 367 742 _c
393 742 420 739 448 735 _c
476 730 505 723 535 713 _c
535 593 _l
480 593 _l
476 625 463 650 442 668 _c
421 685 393 694 357 694 _c
293 694 246 670 215 622 _c
184 574 168 500 168 401 _c
_cl}_e}_d
/seven{636 0 84 0 564 729 _sc
564 679 _m
279 0 _l
206 0 _l
478 649 _l
141 649 _l
141 559 _l
84 559 _l
84 729 _l
564 729 _l
564 679 _l
_cl}_d
/eight{{636 0 67 -13 569 742 _sc
466 199 _m
466 251 453 291 427 320 _c
401 349 364 364 318 364 _c
271 364 235 349 209 320 _c
183 291 170 251 170 199 _c
170 147 183 106 209 77 _c
235 48 271 34 318 34 _c
364 34 401 48 427 77 _c
453 106 466 147 466 199 _c
446 553 _m
446 597 434 632 412 657 _c
389 681 358 694 318 694 _c
278 694 246 681 224 657 _c
201 632 190 597 190 553 _c
}_e{190 508 201 473 224 449 _c
246 424 278 412 318 412 _c
358 412 389 424 412 449 _c
434 473 446 508 446 553 _c
393 388 _m
448 380 491 360 522 327 _c
553 293 569 251 569 199 _c
569 131 547 78 504 42 _c
460 5 398 -13 318 -13 _c
237 -13 175 5 132 42 _c
88 78 67 131 67 199 _c
67 251 82 293 113 327 _c
144 360 187 380 243 388 _c
193 396 156 415 130 444 _c
}_e{104 472 91 509 91 553 _c
91 611 111 657 151 691 _c
191 725 247 742 318 742 _c
388 742 444 725 484 691 _c
524 657 545 611 545 553 _c
545 509 531 472 505 444 _c
479 415 441 396 393 388 _c
_cl}_e}_d
/nine{{636 0 63 -13 569 742 _sc
468 327 _m
446 302 420 284 392 272 _c
364 260 332 254 297 254 _c
224 254 167 275 125 319 _c
83 363 63 422 63 498 _c
63 572 85 631 131 675 _c
176 719 237 742 313 742 _c
395 742 459 711 503 650 _c
547 588 569 501 569 387 _c
569 259 542 161 490 91 _c
438 21 364 -13 269 -13 _c
243 -13 216 -10 188 -6 _c
160 -2 131 5 101 15 _c
101 136 _l
}_e{156 136 _l
160 103 172 78 194 60 _c
215 42 243 34 279 34 _c
342 34 389 57 420 105 _c
450 153 466 227 468 327 _c
309 694 _m
263 694 227 677 203 643 _c
178 609 166 561 166 498 _c
166 434 178 386 203 352 _c
227 318 263 302 309 302 _c
355 302 390 318 415 351 _c
439 383 452 430 452 492 _c
452 556 439 606 415 641 _c
390 676 355 694 309 694 _c
_cl}_e}_d
/minus{838 0 106 274 732 353 _sc
106 353 _m
732 353 _l
732 274 _l
106 274 _l
106 353 _l
_cl}_d
end readonly def

/BuildGlyph
 {exch begin
 CharStrings exch
 2 copy known not{pop /.notdef}if
 true 3 1 roll get exec
 end}_d

/BuildChar {
 1 index /Encoding get exch get
 1 index /BuildGlyph get exec
}_d

FontName currentdict end definefont pop
%!PS-Adobe-3.0 Resource-Font
%%Title: DejaVu Sans
%%Copyright: Copyright (c) 2003 by Bitstream, Inc. All Rights Reserved. Copyright (c) 2006 by Tavmjong Bah. All Rights Reserved. DejaVu changes are in public domain 
%%Creator: Converted from TrueType to type 3 by PPR
25 dict begin
/_d{bind def}bind def
/_m{moveto}_d
/_l{lineto}_d
/_cl{closepath eofill}_d
/_c{curveto}_d
/_sc{7 -1 roll{setcachedevice}{pop pop pop pop pop pop}ifelse}_d
/_e{exec}_d
/FontName /DejaVuSans def
/PaintType 0 def
/FontMatrix[.001 0 0 .001 0 0]def
/FontBBox[-1021 -463 1793 1232]def
/FontType 3 def
/Encoding [ /parenleft /parenright /zero /minus ] def
/FontInfo 10 dict dup begin
/FamilyName (DejaVu Sans) def
/FullName (DejaVu Sans) def
/Notice (Copyright (c) 2003 by Bitstream, Inc. All Rights Reserved. Copyright (c) 2006 by Tavmjong Bah. All Rights Reserved. DejaVu changes are in public domain ) def
/Weight (Book) def
/Version (Version 2.35) def
/ItalicAngle 0.0 def
/isFixedPitch false def
/UnderlinePosition -130 def
/UnderlineThickness 90 def
end readonly def
/CharStrings 5 dict dup begin
/.notdef 0 def
/parenleft{390 0 86 -131 310 759 _sc
310 759 _m
266 683 234 609 213 536 _c
191 463 181 389 181 314 _c
181 238 191 164 213 91 _c
234 17 266 -56 310 -131 _c
232 -131 _l
183 -54 146 20 122 94 _c
98 168 86 241 86 314 _c
86 386 98 459 122 533 _c
146 607 182 682 232 759 _c
310 759 _l
_cl}_d
/parenright{390 0 80 -131 304 759 _sc
80 759 _m
158 759 _l
206 682 243 607 267 533 _c
291 459 304 386 304 314 _c
304 241 291 168 267 94 _c
243 20 206 -54 158 -131 _c
80 -131 _l
123 -56 155 17 177 91 _c
198 164 209 238 209 314 _c
209 389 198 463 177 536 _c
155 609 123 683 80 759 _c
_cl}_d
/zero{636 0 66 -13 570 742 _sc
318 664 _m
267 664 229 639 203 589 _c
177 539 165 464 165 364 _c
165 264 177 189 203 139 _c
229 89 267 64 318 64 _c
369 64 407 89 433 139 _c
458 189 471 264 471 364 _c
471 464 458 539 433 589 _c
407 639 369 664 318 664 _c
318 742 _m
399 742 461 709 505 645 _c
548 580 570 486 570 364 _c
570 241 548 147 505 83 _c
461 19 399 -13 318 -13 _c
236 -13 173 19 130 83 _c
87 147 66 241 66 364 _c
66 486 87 580 130 645 _c
173 709 236 742 318 742 _c
_cl}_d
/minus{838 0 106 272 732 355 _sc
106 355 _m
732 355 _l
732 272 _l
106 272 _l
106 355 _l
_cl}_d
end readonly def

/BuildGlyph
 {exch begin
 CharStrings exch
 2 copy known not{pop /.notdef}if
 true 3 1 roll get exec
 end}_d

/BuildChar {
 1 index /Encoding get exch get
 1 index /BuildGlyph get exec
}_d

FontName currentdict end definefont pop
%!PS-Adobe-3.0 Resource-Font
%%Title: DejaVu Sans Oblique
%%Copyright: Copyright (c) 2003 by Bitstream, Inc. All Rights Reserved. Copyright (c) 2006 by Tavmjong Bah. All Rights Reserved. DejaVu changes are in public domain 
%%Creator: Converted from TrueType to type 3 by PPR
25 dict begin
/_d{bind def}bind def
/_m{moveto}_d
/_l{lineto}_d
/_cl{closepath eofill}_d
/_c{curveto}_d
/_sc{7 -1 roll{setcachedevice}{pop pop pop pop pop pop}ifelse}_d
/_e{exec}_d
/FontName /DejaVuSans-Oblique def
/PaintType 0 def
/FontMatrix[.001 0 0 .001 0 0]def
/FontBBox[-1016 -350 1659 1068]def
/FontType 3 def
/Encoding [ /J /K /M /s ] def
/FontInfo 10 dict dup begin
/FamilyName (DejaVu Sans) def
/FullName (DejaVu Sans Oblique) def
/Notice (Copyright (c) 2003 by Bitstream, Inc. All Rights Reserved. Copyright (c) 2006 by Tavmjong Bah. All Rights Reserved. DejaVu changes are in public domain ) def
/Weight (Oblique) def
/Version (Version 2.35) def
/ItalicAngle -11.0 def
/isFixedPitch false def
/UnderlinePosition -130 def
/UnderlineThickness 90 def
end readonly def
/CharStrings 5 dict dup begin
/.notdef 0 def
/J{295 0 -163 -199 266 729 _sc
167 729 _m
266 729 _l
134 51 _l
116 -37 87 -100 47 -140 _c
6 -179 -50 -199 -124 -199 _c
-163 -199 _l
-147 -116 _l
-116 -116 _l
-72 -116 -38 -103 -16 -78 _c
6 -53 23 -10 35 51 _c
167 729 _l
_cl}_d
/K{656 0 27 0 722 729 _sc
169 729 _m
268 729 _l
208 422 _l
591 729 _l
722 729 _l
289 381 _l
606 0 _l
486 0 _l
195 355 _l
126 0 _l
27 0 _l
169 729 _l
_cl}_d
/M{863 0 27 0 836 729 _sc
169 729 _m
317 729 _l
402 238 _l
684 729 _l
836 729 _l
694 0 _l
598 0 _l
722 639 _l
436 140 _l
340 140 _l
247 641 _l
123 0 _l
27 0 _l
169 729 _l
_cl}_d
/s{{521 0 11 -13 500 560 _sc
500 531 _m
483 446 _l
459 458 433 468 407 475 _c
381 481 354 485 326 485 _c
278 485 241 477 214 461 _c
187 445 174 423 174 395 _c
174 363 205 338 269 321 _c
273 319 277 318 279 318 _c
308 309 _l
368 292 408 274 428 256 _c
448 238 458 213 458 182 _c
458 124 435 77 389 41 _c
343 5 282 -13 208 -13 _c
179 -13 149 -10 117 -5 _c
}_e{85 0 49 8 11 20 _c
29 113 _l
61 95 94 82 126 74 _c
158 65 188 61 218 61 _c
262 61 297 70 325 89 _c
352 108 366 132 366 161 _c
366 192 330 217 258 237 _c
249 239 _l
218 247 _l
172 259 138 274 117 294 _c
96 314 86 339 86 370 _c
86 428 107 475 151 509 _c
195 543 254 560 330 560 _c
360 560 389 557 417 552 _c
445 547 472 540 500 531 _c
_cl}_e}_d
end readonly def

/BuildGlyph
 {exch begin
 CharStrings exch
 2 copy known not{pop /.notdef}if
 true 3 1 roll get exec
 end}_d

/BuildChar {
 1 index /Encoding get exch get
 1 index /BuildGlyph get exec
}_d

FontName currentdict end definefont pop
end
%%EndProlog
mpldict begin
90 252 translate
432 288 0 0 clipbox
gsave
0 0 m
432 0 l
432 288 l
0 288 l
cl
1.000 setgray
fill
grestore
gsave
59.168 46.28 m
413.16 46.28 l
413.16 277.2 l
59.168 277.2 l
cl
1.000 setgray
fill
grestore
1.000 setlinewidth
1 setlinejoin
0 setlinecap
[] 0 setdash
0.000 setgray
gsave
/o {
gsave
newpath
translate
1.0 setlinewidth
1 setlinejoin
0 setlinecap
0 0 m
0 -3.5 l

gsave
0.000 setgray
fill
grestore
stroke
grestore
} bind def
59.168 46.28 o
grestore
/DejaVuSerif findfont
10.000 scalefont
setfont
gsave
47.027375 31.686250 translate
0.000000 rotate
0.000000 0.000000 m /minus glyphshow
8.378906 0.000000 m /zero glyphshow
14.741211 0.000000 m /period glyphshow
17.919922 0.000000 m /five glyphshow
grestore
gsave
/o {
gsave
newpath
translate
1.0 setlinewidth
1 setlinejoin
0 setlinecap
0 0 m
0 -3.5 l

gsave
0.000 setgray
fill
grestore
stroke
grestore
} bind def
109.738 46.28 o
grestore
gsave
101.785161 31.686250 translate
0.000000 rotate
0.000000 0.000000 m /zero glyphshow
6.362305 0.000000 m /period glyphshow
9.541016 0.000000 m /zero glyphshow
grestore
gsave
/o {
gsave
newpath
translate
1.0 setlinewidth
1 setlinejoin
0 setlinecap
0 0 m
0 -3.5 l

gsave
0.000 setgray
fill
grestore
stroke
grestore
} bind def
160.309 46.28 o
grestore
gsave
152.355446 31.686250 translate
0.000000 rotate
0.000000 0.000000 m /zero glyphshow
6.362305 0.000000 m /period glyphshow
9.541016 0.000000 m /five glyphshow
grestore
gsave
/o {
gsave
newpath
translate
1.0 setlinewidth
1 setlinejoin
0 setlinecap
0 0 m
0 -3.5 l

gsave
0.000 setgray
fill
grestore
stroke
grestore
} bind def
210.879 46.28 o
grestore
gsave
202.925732 31.686250 translate
0.000000 rotate
0.000000 0.000000 m /one glyphshow
6.362305 0.000000 m /period glyphshow
9.541016 0.000000 m /zero glyphshow
grestore
gsave
/o {
gsave
newpath
translate
1.0 setlinewidth
1 setlinejoin
0 setlinecap
0 0 m
0 -3.5 l

gsave
0.000 setgray
fill
grestore
stroke
grestore
} bind def
261.449 46.28 o
grestore
gsave
253.496018 31.686250 translate
0.000000 rotate
0.000000 0.000000 m /one glyphshow
6.362305 0.000000 m /period glyphshow
9.541016 0.000000 m /five glyphshow
grestore
gsave
/o {
gsave
newpath
translate
1.0 setlinewidth
1 setlinejoin
0 setlinecap
0 0 m
0 -3.5 l

gsave
0.000 setgray
fill
grestore
stroke
grestore
} bind def
312.019 46.28 o
grestore
gsave
304.066304 31.686250 translate
0.000000 rotate
0.000000 0.000000 m /two glyphshow
6.362305 0.000000 m /period glyphshow
9.541016 0.000000 m /zero glyphshow
grestore
gsave
/o {
gsave
newpath
translate
1.0 setlinewidth
1 setlinejoin
0 setlinecap
0 0 m
0 -3.5 l

gsave
0.000 setgray
fill
grestore
stroke
grestore
} bind def
362.59 46.28 o
grestore
gsave
354.636589 31.686250 translate
0.000000 rotate
0.000000 0.000000 m /two glyphshow
6.362305 0.000000 m /period glyphshow
9.541016 0.000000 m /five glyphshow
grestore
gsave
/o {
gsave
newpath
translate
1.0 setlinewidth
1 setlinejoin
0 setlinecap
0 0 m
0 -3.5 l

gsave
0.000 setgray
fill
grestore
stroke
grestore
} bind def
413.16 46.28 o
grestore
gsave
405.206875 31.686250 translate
0.000000 rotate
0.000000 0.000000 m /three glyphshow
6.362305 0.000000 m /period glyphshow
9.541016 0.000000 m /zero glyphshow
grestore
gsave
209.164000 14.608125 translate
0.000000 rotate
/DejaVuSans findfont
14.0 scalefont
setfont
0.000000 0.375000 moveto
/parenleft glyphshow

/DejaVuSans-Oblique findfont
14.0 scalefont
setfont
5.461914 0.375000 moveto
/J glyphshow

/DejaVuSans findfont
14.0 scalefont
setfont
12.318359 0.375000 moveto
/minus glyphshow

/DejaVuSans-Oblique findfont
14.0 scalefont
setfont
26.776367 0.375000 moveto
/K glyphshow

/DejaVuSans-Oblique findfont
9.799999999999999 scalefont
setfont
35.957031 -1.921875 moveto
/s glyphshow

/DejaVuSans findfont
14.0 scalefont
setfont
41.445605 0.375000 moveto
/parenright glyphshow

/DejaVuSans findfont
9.799999999999999 scalefont
setfont
47.041504 -1.921875 moveto
/zero glyphshow


grestore
gsave
/o {
gsave
newpath
translate
1.0 setlinewidth
1 setlinejoin
0 setlinecap
0 0 m
-3.5 0 l

gsave
0.000 setgray
fill
grestore
stroke
grestore
} bind def
59.168 262.767 o
grestore
gsave
31.074250 258.970625 translate
0.000000 rotate
0.000000 0.000000 m /minus glyphshow
8.378906 0.000000 m /one glyphshow
14.741211 0.000000 m /zero glyphshow
grestore
gsave
/o {
gsave
newpath
translate
1.0 setlinewidth
1 setlinejoin
0 setlinecap
0 0 m
-3.5 0 l

gsave
0.000 setgray
fill
grestore
stroke
grestore
} bind def
59.168 233.902 o
grestore
gsave
37.433625 230.105625 translate
0.000000 rotate
0.000000 0.000000 m /minus glyphshow
8.378906 0.000000 m /nine glyphshow
grestore
gsave
/o {
gsave
newpath
translate
1.0 setlinewidth
1 setlinejoin
0 setlinecap
0 0 m
-3.5 0 l

gsave
0.000 setgray
fill
grestore
stroke
grestore
} bind def
59.168 205.037 o
grestore
gsave
37.433625 201.240625 translate
0.000000 rotate
0.000000 0.000000 m /minus glyphshow
8.378906 0.000000 m /eight glyphshow
grestore
gsave
/o {
gsave
newpath
translate
1.0 setlinewidth
1 setlinejoin
0 setlinecap
0 0 m
-3.5 0 l

gsave
0.000 setgray
fill
grestore
stroke
grestore
} bind def
59.168 176.172 o
grestore
gsave
37.433625 172.375625 translate
0.000000 rotate
0.000000 0.000000 m /minus glyphshow
8.378906 0.000000 m /seven glyphshow
grestore
gsave
/o {
gsave
newpath
translate
1.0 setlinewidth
1 setlinejoin
0 setlinecap
0 0 m
-3.5 0 l

gsave
0.000 setgray
fill
grestore
stroke
grestore
} bind def
59.168 147.308 o
grestore
gsave
37.433625 143.510625 translate
0.000000 rotate
0.000000 0.000000 m /minus glyphshow
8.378906 0.000000 m /six glyphshow
grestore
gsave
/o {
gsave
newpath
translate
1.0 setlinewidth
1 setlinejoin
0 setlinecap
0 0 m
-3.5 0 l

gsave
0.000 setgray
fill
grestore
stroke
grestore
} bind def
59.168 118.442 o
grestore
gsave
37.433625 114.645625 translate
0.000000 rotate
0.000000 0.000000 m /minus glyphshow
8.378906 0.000000 m /five glyphshow
grestore
gsave
/o {
gsave
newpath
translate
1.0 setlinewidth
1 setlinejoin
0 setlinecap
0 0 m
-3.5 0 l

gsave
0.000 setgray
fill
grestore
stroke
grestore
} bind def
59.168 89.5775 o
grestore
gsave
37.433625 85.780625 translate
0.000000 rotate
0.000000 0.000000 m /minus glyphshow
8.378906 0.000000 m /four glyphshow
grestore
gsave
/o {
gsave
newpath
translate
1.0 setlinewidth
1 setlinejoin
0 setlinecap
0 0 m
-3.5 0 l

gsave
0.000 setgray
fill
grestore
stroke
grestore
} bind def
59.168 60.7125 o
grestore
gsave
37.433625 56.915625 translate
0.000000 rotate
0.000000 0.000000 m /minus glyphshow
8.378906 0.000000 m /three glyphshow
grestore
gsave
22.074250 153.740000 translate
90.000000 rotate
/DejaVuSans-Oblique findfont
14.0 scalefont
setfont
0.000000 0.796875 moveto
/M glyphshow

/DejaVuSans-Oblique findfont
9.799999999999999 scalefont
setfont
12.079102 -1.500000 moveto
/J glyphshow


grestore
gsave
354 230.9 59.17 46.28 clipbox
/o {
gsave
newpath
translate
1.0 setlinewidth
1 setlinejoin
0 setlinecap
0 -0.125 m
0.03315 -0.125 0.064947 -0.111829 0.088388 -0.088388 c
0.111829 -0.064947 0.125 -0.03315 0.125 0 c
0.125 0.03315 0.111829 0.064947 0.088388 0.088388 c
0.064947 0.111829 0.03315 0.125 0 0.125 c
-0.03315 0.125 -0.064947 0.111829 -0.088388 0.088388 c
-0.111829 0.064947 -0.125 0.03315 -0.125 0 c
-0.125 -0.03315 -0.111829 -0.064947 -0.088388 -0.088388 c
-0.064947 -0.111829 -0.03315 -0.125 0 -0.125 c
cl

gsave
0.000 setgray
fill
grestore
stroke
grestore
} bind def
281.263 111.766 o
276.83 136.652 o
250.928 148.628 o
254.488 119.84 o
223.477 140.823 o
214.257 86.3198 o
428.975 84.849 o
371.714 104.42 o
191.003 81.2587 o
271.81 136.956 o
247.953 114.993 o
257.047 172.614 o
163.869 16.6121 o
263.554 151.526 o
196.087 -1 o
201.256 -1 o
278.13 153.144 o
293.358 185.8 o
316.653 115.423 o
299.274 132.478 o
206.631 100.356 o
304.371 142.11 o
268.197 141.692 o
257.875 151.416 o
258.047 99.5421 o
237.075 143.371 o
281.143 133.325 o
282.43 139.87 o
242.302 77.3916 o
320.662 152.364 o
381.47 123.74 o
266.528 88.6045 o
238.423 135.134 o
289.367 156.657 o
359.661 66.3237 o
253.207 108.206 o
227.722 152.68 o
296.239 150.428 o
276.854 125.728 o
312.363 157.898 o
306.433 136.562 o
280.298 163.428 o
342.041 136.05 o
303.298 115.194 o
433 50.9144 o
433 57.4504 o
280.031 157.988 o
296.549 122.603 o
269.258 111.993 o
433 90.7636 o
433 91.4608 o
256.1 118.247 o
288.654 142.823 o
218.32 119.099 o
286.472 149.189 o
267.55 115.436 o
232.57 52.7917 o
344.927 82.6676 o
358.018 126.162 o
200.135 67.633 o
240.749 140.387 o
310.356 103.65 o
297.728 85.6353 o
264.022 110.335 o
294.532 138.811 o
271.52 128.083 o
261.728 149.891 o
357.223 145.599 o
412.537 100.712 o
394.715 125.57 o
250.614 126.541 o
236.87 113.337 o
243.387 114.813 o
279.729 88.6425 o
310.331 107.753 o
285.654 102.139 o
295.341 178.382 o
267.931 181.571 o
330.204 127.072 o
302.958 129.042 o
152.054 105.403 o
262.122 120.721 o
301.359 112.083 o
356.759 101.457 o
278.434 138.753 o
245.639 126.239 o
288.506 147.682 o
246.27 140.812 o
360.091 132.035 o
168.713 8.15888 o
275.961 155.211 o
242.757 114.251 o
297.851 131.475 o
217.553 74.0131 o
272.312 126.601 o
269.112 152.717 o
264.255 86.9821 o
259.959 132.23 o
349.279 114.389 o
189.395 116.961 o
255.124 140.863 o
179.623 24.5455 o
312.341 140.593 o
335.251 123.291 o
251.036 121.903 o
259.316 107.86 o
433 122.29 o
433 89.929 o
314.077 152 o
257.411 151.013 o
391.493 103.37 o
289.364 150.313 o
283.06 140.297 o
276.692 123.347 o
306.561 129.055 o
240.699 130.333 o
312.616 87.9511 o
323.371 69.7374 o
265.879 183.296 o
255.481 122.567 o
264.619 110.066 o
246.774 90.9664 o
273.15 134.713 o
294.357 156.239 o
286.422 141.529 o
269.176 178.346 o
261.03 144.765 o
407.627 44.3319 o
231.995 117.007 o
270.201 114.456 o
285.079 135.365 o
277.497 165.875 o
282.023 157.671 o
388.902 84.7494 o
264.433 159.391 o
258.668 71.6284 o
320.604 133.799 o
297.025 137.967 o
214.566 62.3782 o
333.54 119.778 o
265.148 120.199 o
366.145 114.247 o
215.817 81.5785 o
283.928 71.6096 o
232.943 150.788 o
299.941 84.9078 o
264.805 131.221 o
309.42 140.941 o
291.052 150.565 o
290.729 168.114 o
312.483 128.705 o
264.897 111.891 o
179.177 33.753 o
306.598 125.493 o
273.284 155.215 o
272.334 150.199 o
187.783 71.0816 o
252.964 138.862 o
190.569 31.2208 o
347.042 124.746 o
289.858 89.9333 o
299.084 135.746 o
265.148 115.861 o
255.36 143.299 o
204.748 120.195 o
159.529 -1 o
172.488 -1 o
267.421 167.895 o
271.048 123.967 o
261.212 131.011 o
329.647 115.471 o
266.048 82.258 o
270.477 149.121 o
265.14 85.5944 o
288.665 157.329 o
295.937 147.559 o
433 64.6995 o
433 64.5908 o
279.02 151.065 o
246.508 137.031 o
279.491 136.114 o
277.116 115.726 o
297.788 139.832 o
282.941 170.609 o
270.091 145.003 o
239.91 195.183 o
253.137 107.223 o
281.901 106.646 o
260.863 115.08 o
197.941 -1 o
200.808 -1 o
296.432 136.439 o
188.169 55.2863 o
364.91 106.343 o
288.713 129.52 o
320.937 150.816 o
308.224 144.14 o
304.683 141.335 o
299.382 134.44 o
188.042 29.1949 o
292.864 173.923 o
250.199 -1 o
188.81 -1 o
186.119 29.201 o
428.391 107.514 o
433 103.764 o
433 72.7064 o
265.723 101.877 o
276.803 172.315 o
213.528 109.956 o
273.475 115.881 o
258.543 196.264 o
283.018 153.184 o
265.395 165.96 o
388.492 154.238 o
325.92 107.845 o
263.099 153.385 o
268.817 133.989 o
273.541 128.908 o
318.673 130.134 o
270.755 208.291 o
237.7 132.817 o
262.657 139.182 o
331.026 103.902 o
253.497 76.6692 o
368.327 117.005 o
267.156 133.593 o
253.015 178.391 o
322.441 116.129 o
176.592 31.7854 o
390.988 102.65 o
278.486 119.058 o
133.704 108.273 o
272.027 133.19 o
210.639 67.6926 o
237.942 76.8556 o
433 67.6497 o
433 64.2522 o
314.945 64.1861 o
271.432 168.969 o
283.48 56.2905 o
257.028 57.6243 o
287.942 175.449 o
276.8 153.387 o
279.665 140.18 o
206.171 120.824 o
292.618 188.897 o
316.461 64.0436 o
433 16.788 o
433 19.3043 o
307.373 141.916 o
413.144 121.051 o
207.672 147.577 o
298.645 103.731 o
268.5 134.185 o
382.352 105.768 o
290.835 -1 o
286.539 -1 o
283.988 108.047 o
261.355 148.356 o
221.365 98.7007 o
356.054 120.677 o
289.32 151.254 o
295.834 121.929 o
231.547 99.547 o
206.306 109.727 o
290.757 109.492 o
316.384 100.278 o
232.3 111.421 o
266.009 144.166 o
266.218 146.641 o
401.547 98.3478 o
249.052 150.474 o
288.116 136.814 o
224.719 134.601 o
264.825 94.6816 o
374.738 123.692 o
280.662 92.4498 o
293.137 158.91 o
313.559 160.337 o
291.769 144.587 o
387.47 93.5111 o
254.033 114.362 o
433 122.439 o
433 122.011 o
262.932 104.041 o
281.44 145.275 o
262.164 108.733 o
287.903 104.732 o
262.439 107.877 o
276.512 80.4037 o
257.341 119.19 o
284.527 119.478 o
270.965 138.347 o
288.178 143.3 o
267.459 117.596 o
251.305 150.522 o
237.797 124.803 o
373.02 87.8121 o
278.997 119.685 o
287.056 142.65 o
290.566 123.899 o
253.584 -1 o
249.908 -1 o
272.702 147.742 o
283.886 153.614 o
283.272 181.571 o
277.55 121.179 o
308.765 140.994 o
185.152 -1 o
187.012 -1 o
303.028 119.307 o
290.499 132.207 o
259.934 147.267 o
266.584 89.0395 o
302.877 100.251 o
302.165 121.52 o
319.03 116.398 o
279.027 151.696 o
281.723 152.725 o
251.888 162.264 o
286.287 144.504 o
272.293 114.966 o
200.461 88.1213 o
264.539 82.75 o
237.176 140.753 o
258.649 161.88 o
278.315 120.164 o
282.238 97.2033 o
246.31 121.821 o
300.285 105.095 o
330.575 106.09 o
286.188 144.096 o
318.336 120.441 o
288.16 126.988 o
276.666 120.138 o
258.019 134.163 o
264.552 151.375 o
197.284 85.8828 o
261.067 165.515 o
181.737 40.9198 o
254.379 160.987 o
312.769 135.186 o
280.064 135.641 o
255.434 119.163 o
285.107 109.624 o
286.324 140.767 o
178.147 48.5873 o
262.981 81.7342 o
394.169 105.362 o
281.777 -1 o
266.69 -1 o
279.425 132.391 o
213.176 57.821 o
287.703 128.864 o
259.392 144.243 o
254.503 128.813 o
322.342 108.87 o
273.917 146.529 o
325.298 156.267 o
222.81 75.7577 o
185.058 -1 o
180.202 -1 o
202.292 61.0842 o
277.233 163.618 o
297.496 156.942 o
278.839 136.606 o
278.162 119.408 o
191.107 -1 o
184.548 -1 o
251.548 145.354 o
310.035 122.53 o
183.793 38.5176 o
300.763 129.033 o
268.146 188.855 o
298.493 111.244 o
287.67 161.079 o
401.41 99.3491 o
298.513 122.562 o
433 82.4003 o
433 95.5653 o
287.245 164.086 o
178.43 9.24477 o
270.989 169.294 o
262.844 159.777 o
303.229 133.954 o
335.664 140.738 o
289.586 126.168 o
316.661 160.152 o
284.797 112.981 o
249.231 -1 o
227.295 -1 o
251.679 122.916 o
433 39.0172 o
433 48.2773 o
274.206 150.99 o
275.888 130.203 o
303.682 61.3021 o
267.18 92.1899 o
320.618 133.868 o
177.158 39.7564 o
261.206 157.361 o
338.801 104.277 o
284.573 129.357 o
310.022 146.914 o
268.152 130.591 o
167.092 162.677 o
271.107 121.83 o
305.356 131.618 o
259.925 122.874 o
253.382 149.586 o
232.064 155.343 o
320.262 115.539 o
298.969 85.1496 o
349.768 129.853 o
380.837 65.4707 o
240.869 135.554 o
234.077 137.665 o
311.733 90.0781 o
255.962 210.434 o
185.81 34.5675 o
295.448 84.1206 o
282.141 125.391 o
186.201 69.1292 o
329.864 143.277 o
284.732 143.468 o
233.782 68.0017 o
338.247 136.577 o
201.219 57.6825 o
390.121 98.3609 o
288.278 109.313 o
293.707 125.964 o
299.907 149.834 o
220.911 84.8251 o
208.487 -1 o
301.15 -1 o
394.912 132.14 o
304.937 105.486 o
271.294 134.763 o
372.678 116.253 o
254.067 140.587 o
273.024 102.836 o
215.346 94.5447 o
179.121 48.6757 o
194.397 54.5836 o
249.235 126.352 o
309.682 132.03 o
264.726 153.991 o
283.881 96.7881 o
257.378 111.444 o
199.177 60.852 o
267.389 144.574 o
315.295 134.767 o
317.307 107.46 o
287.769 141.733 o
189.936 29.8948 o
281.614 141.413 o
260.992 122.651 o
257.16 139.294 o
278.014 137.343 o
214.348 94.5989 o
295.258 146.716 o
208.229 114.372 o
345.632 88.1469 o
275.04 177.542 o
371.35 135.854 o
295.182 84.779 o
259.814 132.762 o
213.092 32.1331 o
309.551 117.675 o
143.771 107.175 o
257.935 149.066 o
292.903 159.306 o
262.554 145.626 o
181.263 4.27068 o
286.081 126.687 o
253.664 147.912 o
291.406 138.962 o
287.269 106.234 o
247.385 174.529 o
275.125 160.7 o
253.894 117.861 o
287.581 141.325 o
402.052 102.934 o
428.287 86.1656 o
247.637 102.751 o
215.467 177.821 o
320.956 93.4824 o
243.894 189.239 o
294.061 100.132 o
268.188 155.988 o
298.544 123.008 o
350.027 164.043 o
249.666 76.3709 o
269.129 144.534 o
282.382 167.731 o
177.42 9.41296 o
314.985 133.615 o
292.304 141.36 o
294.489 135.323 o
245.371 124.083 o
286.508 147.64 o
275.394 124.72 o
278.063 168.216 o
255.64 156.324 o
401.124 110.907 o
249.691 128.232 o
309.484 135.282 o
273.202 152.327 o
300.886 145.318 o
289.972 118.519 o
282.652 155.915 o
336.687 137.413 o
259.17 117.191 o
233.995 165.882 o
239.104 82.4992 o
297.504 126.104 o
250.188 136.906 o
228.023 101.57 o
278.134 141.264 o
193.392 36.0078 o
255.199 122.22 o
255.802 127.03 o
187.515 58.8499 o
276.332 164.03 o
282.462 151.202 o
292.672 155.72 o
243.956 147.626 o
172.504 32.1525 o
268.56 137.05 o
296.667 147.919 o
286.923 147.13 o
286.936 120.524 o
198.653 20.6102 o
260.752 133.082 o
408.423 106.029 o
407.57 137.051 o
235.015 126.35 o
270.902 151.343 o
225.761 64.6855 o
284.091 101.836 o
307.649 132.74 o
232.495 157.105 o
226.566 85.2669 o
284.861 143.688 o
322.186 119.173 o
245.282 109.442 o
275.929 164.564 o
171.919 27.7769 o
275.391 154.167 o
259.309 167.895 o
179.528 14.3719 o
295.607 110.146 o
315.763 116.192 o
234.089 107.084 o
297.047 153.972 o
294.885 110.609 o
295.174 131.799 o
292.636 106.294 o
271.786 137.328 o
295.456 139.764 o
307.057 150.341 o
225.168 59.933 o
223.733 119.04 o
194.875 81.4875 o
396.65 147.507 o
274.147 118.982 o
218.119 100.412 o
313.92 128.343 o
282.802 140.92 o
272.297 136.269 o
286.013 163.659 o
301.947 115.162 o
249.11 103.936 o
284.309 134.503 o
338.339 118.182 o
268.591 151.062 o
248.651 119.424 o
184.11 70.1887 o
287.809 164.37 o
268.276 128.814 o
302.906 131.787 o
212.093 67.9864 o
293.008 172.587 o
276.178 127.376 o
304.467 171.432 o
289.868 145.313 o
258.579 145.807 o
294.508 118.069 o
252.475 148.084 o
272.26 126.586 o
293.156 142.632 o
271.551 158.171 o
298.742 107.059 o
404.551 85.1421 o
316.327 144.277 o
297.255 133.387 o
261.344 173.971 o
182.693 -1 o
184.889 -1 o
219.692 65.3656 o
282.411 118.309 o
292.216 115.693 o
172.486 1.04397 o
203.668 39.9593 o
284.058 110.25 o
279.101 102.287 o
275.42 147.951 o
351.206 137.702 o
288.96 150.677 o
259.56 111.976 o
196.588 91.9931 o
265.3 150.591 o
263.334 173.52 o
290.412 130.759 o
171.595 44.8886 o
261.245 116.727 o
272.971 125.212 o
267.059 148.887 o
341.772 146.516 o
272.832 102.17 o
313.343 143.992 o
284.598 158.547 o
272.164 144.374 o
297.167 107.149 o
309.081 125.413 o
318.97 115.414 o
315.658 147.186 o
260.557 162.664 o
325.006 114.215 o
214.303 127.264 o
289.49 132.444 o
274.258 112.155 o
292.407 164.32 o
320.289 127.329 o
276.733 130.951 o
268.247 91.3046 o
302.118 122.457 o
376.745 123.978 o
338.905 122.227 o
345.365 146.751 o
277.904 125.693 o
312.056 135.861 o
288.833 140.591 o
301.052 117.463 o
309.146 112.2 o
271.816 128.055 o
272.749 145.083 o
276.669 174.402 o
249.623 172.7 o
290.817 115.493 o
296.745 150.522 o
285.024 164.333 o
312.983 143.104 o
433 90.3601 o
433 90.3181 o
251.123 169.756 o
317.915 116.954 o
294.556 127.665 o
260.388 148.032 o
208.512 41.8538 o
300.333 137.668 o
276.495 137.517 o
156.681 53.3044 o
324.658 129.549 o
433 84.344 o
433 79.9736 o
254.145 145.46 o
304.969 126.374 o
411.688 96.5668 o
273.99 138.591 o
275.716 158.057 o
293.647 171.003 o
315.54 104.3 o
263.583 16.2621 o
279.67 63.2893 o
258.405 166.108 o
186.604 70.4363 o
433 86.8977 o
433 102.587 o
245.257 172.435 o
181.122 50.577 o
261.183 116.695 o
304.146 110.334 o
282.867 162.688 o
272.524 65.9804 o
293.243 139.403 o
301.219 89.1066 o
386.728 115.822 o
236.731 170.527 o
264.068 151.049 o
208.372 77.9159 o
292.571 115.895 o
308.292 139.745 o
277.865 154.417 o
275.095 119.286 o
293.055 112.344 o
311.609 137.144 o
286.415 120.486 o
182.994 67.3418 o
292.06 95.4272 o
280.495 149.597 o
323.014 120.651 o
298.463 142.532 o
205.822 39.1366 o
302.358 116.771 o
370.345 117.146 o
179.301 20.4447 o
304.946 97.0803 o
306.24 154.834 o
257.775 121.545 o
365.562 154.026 o
348.834 108.256 o
177.935 38.3379 o
276.801 166.834 o
271.981 134.033 o
290.84 142.25 o
297.731 149.967 o
266.735 142.884 o
262.975 133.435 o
250.342 150.4 o
300.804 140.916 o
256.027 152.361 o
304.773 147.297 o
183.67 -1 o
182.846 -1 o
313.06 165.88 o
279.73 137.705 o
282.271 170.351 o
241.106 129.549 o
329.569 102.011 o
211.612 66.7431 o
300.102 105.261 o
265.802 145.238 o
305.643 150.015 o
313.55 149.726 o
287.383 151.273 o
343.176 116.006 o
222.692 136.155 o
214.345 100.282 o
286.514 111.569 o
387.926 94.5464 o
299.649 112.424 o
249.311 155.984 o
325.621 129.702 o
304.224 72.7064 o
314.968 129.24 o
347.985 102.518 o
259.587 117.988 o
224.307 -1 o
336.975 -1 o
426.73 90.9178 o
255.918 119.72 o
266.205 113.188 o
286.745 151.367 o
433 104.848 o
433 104.736 o
308.021 144.296 o
316.327 99.522 o
247.852 138.447 o
273.329 153.239 o
220.749 76.9319 o
295.32 144.054 o
176.41 38.2267 o
254.954 133.598 o
284.294 144.026 o
279.756 151.945 o
330.793 106.141 o
297.029 133.135 o
333.866 123.884 o
191.384 58.0875 o
251.872 122.932 o
220.47 127.591 o
272.845 140.558 o
260.73 116.718 o
287.652 122.186 o
311.907 100.9 o
265.386 147.038 o
237.057 171.004 o
262.176 132.703 o
313.932 148.743 o
433 100.604 o
433 93.5155 o
322.705 108.268 o
293.567 138.99 o
272.247 153.513 o
269.409 159.278 o
285.275 190.379 o
350.232 144.226 o
277.096 103.525 o
269.035 35.2595 o
235.499 116.831 o
251.861 128.77 o
296.901 123 o
250.86 146.64 o
295.102 138.664 o
289.489 161.045 o
268.46 128.402 o
308.477 133.701 o
284.419 167.357 o
358.575 151.854 o
245.864 147.039 o
274.071 85.6513 o
236.757 144.039 o
265.049 138.266 o
268.318 136.89 o
249.63 168.018 o
257.134 173.61 o
287.958 123.128 o
234.05 87.3139 o
309.362 147.275 o
264.266 121.718 o
308.54 56.4371 o
258.733 125.209 o
258.341 90.913 o
181.739 38.6727 o
256.004 132.303 o
261.383 142.95 o
269.407 171.969 o
277.842 144.97 o
267.841 133.911 o
277.87 158.625 o
261.874 131.238 o
181.992 55.2108 o
305.961 117.488 o
245.776 138.698 o
188.953 45.7843 o
295.359 162.085 o
287.154 113.732 o
261.044 71.4368 o
297.554 145.921 o
360.806 123.554 o
270.814 89.6045 o
288.596 152.276 o
254.124 130.378 o
287.122 153.953 o
321.421 160.699 o
261.075 127.782 o
264.481 137.172 o
341.479 62.0866 o
433 84.6738 o
433 89.6316 o
194.09 58.3385 o
356.567 112.245 o
237.702 168.997 o
376.486 114.752 o
372.244 143.841 o
311.591 127.029 o
254.416 167.182 o
277.798 109.113 o
277.605 145.85 o
251.106 139.841 o
239.462 163.977 o
236.733 169.969 o
181.232 34.6246 o
337.269 139.226 o
243.604 171.791 o
255.82 118.706 o
304.576 143.735 o
313.829 137.195 o
305.661 136.643 o
267.285 81.5433 o
209.473 78.2957 o
220.425 34.8733 o
307.998 152.606 o
261.692 103.677 o
312.231 112.825 o
316.403 114.05 o
255.249 116.987 o
291.148 138.582 o
236.073 90.2466 o
291.755 111.627 o
363.162 162.848 o
281.387 192.068 o
251.672 144.315 o
260.056 144.308 o
300.82 108.787 o
396.294 136.51 o
289.08 112.441 o
279.296 108.657 o
296.177 155.887 o
246.418 127.412 o
188.708 51.0716 o
290.087 141.841 o
322.058 125.421 o
270.447 103.164 o
409.526 77.4642 o
190.246 100.575 o
292.942 141.946 o
232.402 136.528 o
280.976 114.28 o
288.762 133.118 o
275.875 130.545 o
245.26 164.68 o
433 99.6222 o
433 94.4103 o
284.123 131.615 o
294.582 143.644 o
299.474 124.848 o
341.89 169.992 o
346.17 79.254 o
312.048 119.017 o
306.517 129.339 o
295.313 167.651 o
340.41 73.1791 o
292.723 128.977 o
354.283 129.922 o
193.341 71.7481 o
272.164 140.045 o
289.697 144.746 o
298.974 132.97 o
273.768 180.028 o
295.361 147.874 o
264.095 148.158 o
264.66 95.9492 o
250.989 144.415 o
291.143 111.961 o
271.301 124.471 o
276.458 167.958 o
277.261 140.15 o
288.58 128.035 o
225.079 102.397 o
376.515 112.769 o
308.305 143.681 o
277.207 166.548 o
218.855 -1 o
223.562 -1 o
275.187 135.558 o
249.679 -1 o
231.61 -1 o
243.928 111.697 o
317.256 111.934 o
256.233 141.267 o
315.119 118.74 o
318.657 100.098 o
261.197 145.477 o
272.984 104.683 o
433 73.6545 o
433 81.5635 o
310.39 113.104 o
278.684 113.247 o
282.133 137.587 o
261.105 129.272 o
282.037 165.757 o
269.054 154.177 o
280.301 98.1476 o
260.778 143.701 o
184.05 51.2678 o
242.15 81.5571 o
297.002 108.681 o
312.342 133.796 o
265.718 194.952 o
280.704 107.059 o
276.462 138.929 o
286.235 141.777 o
225.969 102.658 o
311.226 136.613 o
407.656 77.0095 o
289.94 132.268 o
241.313 -1 o
247.324 -1 o
298.002 126.709 o
289.704 145.14 o
171.745 49.3976 o
176.549 -1 o
254.543 -1 o
295.2 126.457 o
319.968 144.803 o
299.882 104.359 o
299.584 99.5464 o
330.582 106.05 o
259.144 160.145 o
232.485 -1 o
258.702 -1 o
303.895 157.571 o
271.468 167.703 o
267.633 140.46 o
313.723 126.456 o
237.694 90.4808 o
314.295 113.045 o
261.56 208.498 o
283.659 129.801 o
284.059 165.942 o
304.676 151.94 o
328.52 88.8525 o
212.396 75.1724 o
290.099 101.788 o
364.995 106.603 o
294.541 162.52 o
305.929 136.942 o
274.246 127.106 o
259.636 147.921 o
266.533 149.122 o
245.555 88.5556 o
270.954 145.84 o
275.602 155.374 o
264.949 143.316 o
259.43 136.558 o
259.898 143.259 o
283.048 140.381 o
251.315 113.588 o
290.523 111.793 o
187.836 37.611 o
277.062 92.7593 o
372.708 131.114 o
290.84 134.048 o
254.42 126.504 o
310.694 144.212 o
433 81.3456 o
433 74.8738 o
309.103 127.516 o
433 65.3248 o
433 68.1153 o
286.081 163.272 o
262.669 171.152 o
250.58 154.346 o
174.783 -1 o
185.084 -1 o
308.309 96.6543 o
297.788 151.477 o
223.778 130.773 o
292.603 115.881 o
260.163 142.197 o
264.349 143.958 o
311.006 89.9439 o
362.031 55.0801 o
286.363 122.819 o
275.922 140.853 o
277.821 170.748 o
433 100.045 o
433 80.746 o
184.702 82.5555 o
274.628 141.108 o
162.641 88.4877 o
270.764 178.643 o
296.061 118.286 o
310.301 129.69 o
297.981 105.95 o
273.525 121.821 o
363.129 125.779 o
277.195 148.052 o
178.604 50.012 o
248.422 113.083 o
290.475 125.931 o
240.424 129.278 o
281.049 136.693 o
278.246 160.95 o
316.521 151.685 o
312.097 121.364 o
299.77 138.386 o
282.645 120.419 o
305.62 143.617 o
272.563 143.596 o
286.437 112.559 o
278.577 151.505 o
286.734 143.756 o
314.133 140.147 o
255.913 109.685 o
308.414 101.036 o
247.633 120.161 o
280.265 159.969 o
223.578 194.058 o
242.017 134.722 o
320.389 98.4739 o
293.992 159.073 o
412.854 110.595 o
280.265 193.61 o
200.269 47.0608 o
175.742 20.8835 o
308.773 110.863 o
433 83.5717 o
433 83.7751 o
261.994 124.693 o
294.732 126.269 o
384.619 123.673 o
292.761 163.766 o
319.59 101.515 o
372.441 138.88 o
212.194 84.312 o
237.205 96.7374 o
301.257 115.196 o
254.793 118.198 o
171.383 21.8657 o
307.362 135.943 o
286.022 135.345 o
337.539 134.082 o
306.342 125.755 o
300.726 132.518 o
300.377 145.509 o
272.456 132.247 o
217.175 88.3995 o
333.461 1.34265 o
306.147 111.76 o
200.126 89.2741 o
175.367 27.1972 o
249.07 146.381 o
376.501 152.644 o
357.282 87.2148 o
195.665 61.441 o
253.296 120.814 o
295.767 131.183 o
195.74 44.6239 o
292.491 95.2738 o
292.104 143.25 o
276.023 150.263 o
276.704 129.452 o
272.595 146.785 o
179.661 12.159 o
282.275 135.425 o
250.982 118.566 o
282.38 150.543 o
259.553 124.784 o
279.134 139.864 o
268.204 156.508 o
268.529 120.893 o
259.344 124.574 o
263.21 133.83 o
274.251 122.497 o
277.476 137.621 o
150.246 9.11269 o
244.851 166.811 o
202.955 -1 o
207.643 -1 o
249.783 149.536 o
271.359 162.51 o
243.503 127.112 o
292.352 142.973 o
249.554 150.672 o
255.423 133.575 o
270.266 139.163 o
290.693 160.31 o
433 96.9608 o
433 95.3106 o
285.594 148.823 o
317.138 124.357 o
222.847 143.842 o
289.264 129.364 o
238.892 97.357 o
215.555 -1 o
218.689 -1 o
270.64 172.782 o
275.135 175.375 o
136.237 108.852 o
308.248 133.272 o
299.32 71.1717 o
341.274 142.649 o
264.427 113.989 o
379.468 40.6212 o
219.491 131.552 o
277.444 113.625 o
371.215 105.734 o
325.36 123.304 o
316.569 151.42 o
329.201 120.156 o
308.968 130.211 o
390.872 73.9662 o
175.984 32.2722 o
246.471 119.225 o
259.426 167.597 o
287.94 113.553 o
389.583 153.653 o
305.382 113.769 o
265.732 93.6168 o
224.69 119.868 o
210.083 -1 o
238.761 -1 o
280.448 149.754 o
324.518 172.834 o
314.12 167.251 o
253.411 153.918 o
433 76.7984 o
433 61.5345 o
210.581 58.7294 o
298.079 115.059 o
264.024 149.993 o
306.91 91.3287 o
269.586 147.094 o
224.616 83.9122 o
189.416 5.2515 o
244.074 92.8603 o
293.757 179.67 o
322.427 128.986 o
228.421 110.759 o
274.168 128.863 o
250.862 138.951 o
264.026 158.83 o
299.236 140.835 o
254.504 135.149 o
290.49 171.172 o
248.027 101.533 o
347.254 132.787 o
272.185 132.863 o
282.766 133.233 o
183.517 73.5877 o
187.914 44.8974 o
248.435 128.424 o
187.858 46.1199 o
220.395 128.614 o
327.842 181.089 o
315.92 149.074 o
308.314 152.01 o
235.561 140.609 o
265.611 129.98 o
305.868 125.848 o
314.473 131.568 o
277.036 136.676 o
285.555 99.2421 o
273.853 173.215 o
295.744 138.347 o
296.227 169.641 o
263.818 140.751 o
264.079 121.743 o
303.072 163.215 o
258.359 106.423 o
279.799 154.371 o
275.154 111.756 o
294.871 106.895 o
246.904 131.117 o
259.844 175.408 o
256.472 142.205 o
278.534 160.118 o
265.688 140.57 o
292.994 115.418 o
305.19 199.115 o
275.43 107.88 o
299.006 141.784 o
207.293 158.105 o
265.675 121.901 o
433 105.072 o
433 104.396 o
401.162 105.897 o
324.394 123.788 o
266.454 178.514 o
242.452 128.86 o
287.626 133.6 o
255.142 136.823 o
258.574 154.507 o
296.328 128.293 o
305.458 93.2456 o
281.787 108.551 o
245.993 97.0716 o
193.327 115.797 o
179.907 24.6914 o
283.678 135.051 o
433 62.773 o
433 72.3345 o
309.51 138.682 o
246.522 114.674 o
254.581 126.539 o
276.738 116.718 o
264.313 77.4773 o
250.162 141.534 o
318.086 102.376 o
305.617 171.665 o
158.846 45.6473 o
305.676 117.849 o
255.646 101.036 o
165.871 26.6129 o
242.971 116.982 o
282.65 144.622 o
286.952 132.485 o
295.584 125.262 o
287.931 150.911 o
328.634 173.512 o
347.237 146.208 o
360.093 79.1257 o
213.371 134.581 o
289.573 131.555 o
303.178 99.0186 o
267.172 150.047 o
263.915 175.289 o
251.979 159.193 o
263.296 148.775 o
221.6 140.084 o
297.968 106.206 o
263.193 95.4342 o
177.957 33.65 o
276.565 140.447 o
301.448 141.593 o
282.076 108.132 o
293.093 105.716 o
269.617 175.105 o
357.55 139.878 o
290.426 96.8544 o
232.741 115.535 o
272.522 200.894 o
381.624 129.364 o
310.653 150.031 o
296.505 126.379 o
180.637 53.0551 o
278.285 115.38 o
262.708 146.619 o
284.294 132.084 o
269.121 120.366 o
199.671 88.9913 o
273.188 186.338 o
276.788 128.614 o
289.308 119.565 o
294.5 110.879 o
276.209 93.1031 o
313.852 108.559 o
320.338 114.899 o
309.379 150.215 o
195.665 28.3328 o
247.814 128.541 o
411.43 88.5901 o
249.73 117.72 o
358.585 112.499 o
276.083 143.641 o
308.549 113.293 o
281.099 112.966 o
167.637 29.2475 o
266.371 125.428 o
231.034 128.428 o
267.768 150.076 o
218.464 55.5631 o
281.157 129.626 o
212.295 13.4539 o
307.114 112.041 o
433 93.6487 o
433 95.3496 o
271.955 157.664 o
325.566 147.28 o
242.347 121.623 o
200.046 93.7763 o
283.585 121.42 o
270.89 124.226 o
193.621 -1 o
193.2 -1 o
242.201 130.757 o
255.179 49.3537 o
262.358 156.914 o
206.347 72.2572 o
291.256 151.699 o
285.661 108.155 o
214.641 90.7709 o
301.772 142.688 o
241.344 188.893 o
264.211 138.112 o
305.328 155.171 o
269.747 143.369 o
264.08 136.741 o
351.872 113.824 o
272.292 143.525 o
299.73 161.055 o
207.067 74.9358 o
295.146 114.543 o
243.981 137.337 o
188.525 45.2437 o
262.212 152.045 o
172.425 11.2596 o
312.361 116.172 o
237.058 164.157 o
288.851 117.839 o
248.45 152.343 o
268.652 151.165 o
291.443 133.475 o
288.934 161.52 o
225.949 113.663 o
315.019 125.437 o
305.049 106.153 o
295.337 115.391 o
293.316 122.835 o
256.683 160.55 o
340.447 140.791 o
288.533 149.083 o
280.204 99.6034 o
270.742 155.16 o
328.741 127.137 o
263.18 189.376 o
394.688 110.746 o
309.094 162.87 o
254.649 165.068 o
396.246 95.0188 o
220.736 136.877 o
178.275 73.9588 o
314.65 101.05 o
294.398 129.063 o
349.873 97.199 o
258.542 165.994 o
315.424 110.644 o
321.493 107.754 o
185.286 57.4247 o
417.439 57.4732 o
293.297 161.565 o
187.687 38.2106 o
234.887 143.016 o
433 65.8788 o
433 70.5013 o
277.032 143.588 o
252.042 148.985 o
288.887 132.437 o
278.582 139.07 o
276.513 177.144 o
275.727 139.337 o
215.18 74.6029 o
280.226 148.735 o
224.779 99.4195 o
229.488 115.313 o
313.143 108.759 o
235.192 83.131 o
247.198 104.775 o
196.301 48.5292 o
181.926 1.81802 o
322.547 109.235 o
265.797 99.7315 o
205.787 45.3991 o
272.52 187.485 o
256.911 118.546 o
270.925 162.581 o
275.371 80.9125 o
298.545 146.173 o
262.774 123.849 o
267.576 127.977 o
289.285 133.76 o
285.767 168.066 o
293.471 168.139 o
281.567 124.614 o
332.521 147.472 o
242.633 164.333 o
224.704 71.485 o
291.712 143.73 o
212.727 59.4002 o
156.647 2.35484 o
210.97 47.1451 o
274.338 32.8225 o
296.239 172.348 o
181.151 51.533 o
306.828 170.239 o
393.07 69.8986 o
276.669 82.2729 o
173.557 24.2632 o
247.56 136.516 o
355.625 82.4941 o
263.18 143.902 o
312.454 144.929 o
278.591 145.886 o
177.864 -1 o
179.936 -1 o
270.136 100.314 o
236.568 156.881 o
301.934 146.25 o
363.089 87.6057 o
175.317 12.7444 o
222.905 98.1018 o
272.993 128.718 o
268.959 138.921 o
231.697 60.1782 o
274.159 148.93 o
278.697 128.793 o
285.923 151.575 o
292.338 143.711 o
353.668 90.8265 o
262.515 143.007 o
271.467 121.292 o
302.772 118.479 o
299.872 171.622 o
273.417 120.119 o
271.916 115.456 o
270.866 168.743 o
315.15 142.725 o
183.555 -1 o
181.664 -1 o
232.057 81.4549 o
321.02 158.518 o
295.503 124.986 o
301.507 90.4998 o
295.747 179.259 o
282.879 162.637 o
433 66.5043 o
433 65.3528 o
265.881 148.231 o
279.766 148.199 o
227.787 155.853 o
174.136 -1 o
175.43 -1 o
305.794 141.921 o
273.13 160.428 o
269.633 122.843 o
202.664 49.9011 o
286.752 157.037 o
326.469 129.05 o
299.559 162.879 o
311.437 152.015 o
373.218 62.4089 o
224.235 108.85 o
338.036 111.117 o
186.483 88.5273 o
303.965 119.268 o
302.717 139.595 o
318.862 144.052 o
423.971 26.6203 o
174.266 -0.897438 o
285.972 147.153 o
337.867 80.124 o
287.136 165.777 o
353.646 134.042 o
172.201 30.329 o
196.308 46.8553 o
280.153 -1 o
357.462 -1 o
286.661 158.032 o
266.251 118.436 o
248.682 155.548 o
293.723 130.023 o
310.086 104.486 o
274.501 133.081 o
214.318 60.0781 o
291.342 138.037 o
294.856 118.372 o
396.628 78.696 o
244.84 154.728 o
314.522 64.7039 o
229.9 98.9883 o
264.916 162.426 o
310.97 103.313 o
229.59 135.087 o
339.813 139.887 o
231.694 79.8809 o
273.212 133.561 o
298.537 128.292 o
278.772 126.795 o
265.543 187.418 o
292.687 91.1001 o
271.07 145.391 o
298.315 133.806 o
190.387 68.424 o
167.732 46.8452 o
251.16 101.768 o
255.257 132.698 o
288.613 170.827 o
142.972 106.71 o
253.314 155.751 o
292.594 145.247 o
221.395 52.5491 o
251.082 103.366 o
277.842 147.628 o
297.119 108.69 o
397.173 116.924 o
286.811 121.667 o
278.366 172.357 o
214.687 33.7635 o
274.048 151.093 o
176.157 37.0389 o
221.667 93.4488 o
245.979 97.7943 o
179.41 30.2182 o
285.496 129.339 o
307.333 136.93 o
287.35 176.014 o
205.019 -1 o
202.865 -1 o
253.154 157.865 o
284.613 149.878 o
252.952 127.392 o
295.871 151.395 o
280.081 156.447 o
201.24 39.8415 o
190.948 37.2171 o
245.108 149.146 o
261.786 143.915 o
306.949 76.562 o
246.44 114.966 o
245.606 107.13 o
322.135 99.0616 o
320.978 119.178 o
227.489 128.961 o
262.57 142.491 o
215.759 83.208 o
315.248 126.462 o
336.291 121.752 o
209.967 101.605 o
363.529 134.015 o
333.328 137.207 o
389.31 127.468 o
208.835 78.2142 o
244.139 140.014 o
413.936 98.4625 o
282.332 140.356 o
254.843 159.159 o
286.903 121.04 o
236.152 135.197 o
286.792 84.473 o
253.488 107.683 o
309.674 154.184 o
228.048 76.6445 o
182.357 20.0284 o
269.279 147.546 o
319.106 143.492 o
295.635 177.484 o
232.664 77.6079 o
258.08 96.265 o
260.546 187.382 o
297.915 122.001 o
254.974 163.787 o
214.397 99.0219 o
284.761 109.18 o
351.21 95.6549 o
300.889 142.481 o
297.847 116.811 o
265.128 102.424 o
263.379 132.445 o
236.257 118.548 o
393.366 118.234 o
281.165 156.747 o
221.421 90.137 o
216.005 47.6174 o
234.797 63.714 o
293.535 103.56 o
332.56 145.828 o
257.246 125.009 o
264.913 178.041 o
314.866 138.715 o
258.084 114.902 o
287.217 169.914 o
272.736 152.695 o
268.831 152.896 o
330.428 166.102 o
297.058 98.1985 o
317.447 120.178 o
251.766 123.488 o
273.131 179.506 o
240.884 123.106 o
209.371 97.5967 o
286.887 176.329 o
210.308 45.5548 o
247.925 28.8818 o
216.947 74.473 o
260.797 139.038 o
283.213 135.525 o
315.418 127.416 o
271.909 116.487 o
288.091 140.232 o
234.905 183.139 o
241.029 142.133 o
291.103 94.3439 o
268.448 129.179 o
291.752 145.181 o
293.901 144.687 o
309.479 147.615 o
250.057 132.743 o
289.18 170.142 o
282.85 126.011 o
253.204 127.334 o
214.871 75.4974 o
314.77 100.591 o
329.005 102.544 o
187.899 42.1565 o
224.29 76.2602 o
298.577 142.116 o
270.467 103.958 o
354.174 105.21 o
306.239 122.304 o
277.201 157.521 o
288.176 119.022 o
234.238 112.919 o
265.952 159.504 o
260.756 184.827 o
263.75 125.466 o
313.788 146.971 o
210.166 43.4765 o
388.33 81.1364 o
208.573 85.0733 o
377.774 73.6865 o
306.426 136.615 o
265.163 143.203 o
268.38 151.192 o
283.165 128.6 o
433 93.049 o
433 92.6397 o
272.006 122.877 o
292.185 121.742 o
300.364 126.861 o
287.168 114.059 o
360.743 158.886 o
193.03 108.882 o
213.306 119.466 o
231.626 157.042 o
287.613 165.14 o
294.658 139.452 o
280.766 159.635 o
263.031 121.869 o
295.392 143.296 o
278.273 169.804 o
293.35 124.9 o
261.813 159.898 o
251.577 168.799 o
423.443 103.888 o
295.985 101.605 o
274.446 120.13 o
312.49 120.489 o
255.124 116.257 o
293.476 136.146 o
292.635 132.573 o
397.208 68.7012 o
289.49 145.202 o
191.185 45.8282 o
194.401 82.3719 o
333.68 149.361 o
294.612 136.528 o
218.27 49.2369 o
314.941 118.854 o
218.111 113.525 o
249.16 97.7544 o
362.468 155.805 o
326.731 151.61 o
267.974 174.37 o
266.226 96.9372 o
267.913 90.7335 o
387.77 119.168 o
287.792 147.859 o
281.474 128.298 o
304.39 153.254 o
287.574 136.395 o
433 93.3628 o
433 82.8938 o
198.6 73.9052 o
312.834 122.568 o
249.486 116.689 o
186.143 23.3629 o
304.448 133.969 o
234.85 122.534 o
319.056 134.465 o
235.147 84.4257 o
183.782 28.4801 o
283.626 176.194 o
183.431 3.19828 o
266.554 153.809 o
291.642 109.625 o
196.213 39.8719 o
170.93 7.66133 o
282.201 176.704 o
243.539 153.145 o
349.195 92.0393 o
405.125 118.652 o
281.707 143.879 o
251.264 119.742 o
246.276 59.5386 o
278.712 103.945 o
270.896 93.6923 o
312.443 100.575 o
285.035 145.736 o
265.638 143.361 o
306.375 131.708 o
285.177 120.91 o
273.88 158.204 o
258.868 -1 o
267.924 -1 o
296.549 143.368 o
257.038 135.603 o
216.719 63.1502 o
281.792 93.9756 o
299.31 160.569 o
197.577 -1 o
212.435 -1 o
318.89 115.052 o
406.838 110.957 o
188.758 78.7184 o
247.392 144.187 o
243.289 174.896 o
341.843 148.462 o
306.178 121.657 o
311.446 125.699 o
299.413 162.174 o
343.808 143.967 o
188 80.0445 o
433 63.8543 o
433 78.2454 o
266.6 115.436 o
274.018 154.332 o
232.835 101.528 o
295.614 122.881 o
277.402 135.739 o
287.771 147.731 o
314.789 149.745 o
297.937 108.583 o
233.362 85.9652 o
292.327 121.847 o
264.266 128.833 o
236.201 128.266 o
242.954 114.709 o
126.545 149.81 o
267.173 167.317 o
260.068 110.015 o
276.218 144.747 o
262.004 134.379 o
364.631 109.765 o
287.531 141.525 o
299.073 25.1529 o
180.415 33.622 o
277.87 152.324 o
284.347 150.315 o
271.384 118.396 o
251.191 133.216 o
295.533 123.094 o
316.417 121.59 o
284.809 145.351 o
308.712 162.999 o
390.641 105.878 o
255.942 121.87 o
181.189 -1 o
180.353 -1 o
203.302 42.0814 o
173.51 12.8886 o
195.906 43.0716 o
275.811 116.563 o
253.418 93.022 o
252.599 161.141 o
308.102 72.8816 o
302.748 120.301 o
281.805 95.4475 o
234.734 72.7374 o
245.186 46.6166 o
237.916 140.75 o
221.152 93.0772 o
275.78 181.019 o
297.873 139.848 o
286.108 127.947 o
187.957 24.1367 o
295.468 134.53 o
220.439 120.983 o
313.735 93.9709 o
247.419 119.075 o
294.97 139.546 o
192.57 90.9616 o
433 87.2784 o
433 84.7698 o
179.934 24.2718 o
287.578 102.415 o
317.07 119.701 o
289.494 98.1349 o
270.549 171.788 o
286.897 96.721 o
286.911 117.867 o
217.792 71.622 o
200.4 60.5129 o
305.196 146.334 o
274.912 125.752 o
264.248 150.167 o
248.653 147.544 o
346.353 114.18 o
348.414 94.9954 o
278.847 144.054 o
242.906 142.92 o
287.284 127.779 o
278.858 153.129 o
296.675 156.83 o
310.523 156.024 o
317.124 129.861 o
272.461 146.409 o
301.136 155.88 o
234.734 120.434 o
292.221 94.1687 o
234.688 153.909 o
180.959 9.90321 o
246.278 81.983 o
184.417 16.0665 o
260.756 129.23 o
361.627 141.302 o
274.172 150.581 o
247.983 181.506 o
302.148 98.1852 o
280.666 136.177 o
272.181 133.648 o
291.27 154.668 o
183.475 -1 o
182.64 -1 o
175.185 61.8369 o
275.86 145.554 o
257.228 144.421 o
275.923 150.559 o
299.383 117.579 o
290.238 147.693 o
267.659 105.072 o
282.183 179.469 o
309.227 136.625 o
266.977 -1 o
243.744 -1 o
276.445 161.947 o
245.758 145.191 o
288.429 129.894 o
251.531 161.002 o
243.477 94.9459 o
309.914 84.7196 o
246.852 131.276 o
304.31 135.99 o
357.683 148.485 o
251.819 139.294 o
199.207 98.0497 o
212.785 143.964 o
278.053 110.828 o
327.075 129.065 o
306.951 177.112 o
252.771 125.585 o
261.873 128.774 o
278.649 132.633 o
292.887 162.182 o
320.401 122.315 o
281.178 124.443 o
302.928 89.0543 o
265.688 147.411 o
278.581 107.845 o
324.841 93.6476 o
190.448 47.3857 o
224.465 127.132 o
238.954 141.847 o
281.941 198.587 o
302.014 159.121 o
244.929 176.123 o
300.392 157.636 o
196.818 55.5451 o
271.75 125.695 o
258.655 122.303 o
278.479 151.014 o
273.906 130.272 o
225.152 92.0521 o
292.379 153.185 o
310.952 133.623 o
290.058 166.673 o
289.702 176.442 o
210.363 157.369 o
271.877 121.602 o
352.621 172.917 o
222.064 120.844 o
245.019 129.731 o
276.685 108.882 o
295.761 141.839 o
209.989 62.6213 o
259.509 145.607 o
273.685 138.394 o
271.748 166.269 o
268.628 107.822 o
298.938 157.001 o
265.36 148.763 o
169.39 -1 o
169.39 -1 o
283.225 176.877 o
251.741 179.71 o
287.388 151.677 o
251.367 160.61 o
272.935 117.94 o
197.316 132.843 o
293.839 146.82 o
387.167 82.0349 o
267.484 106.992 o
203.496 78.7153 o
248.174 114.995 o
264.078 175.872 o
298.384 162.742 o
300.827 120.237 o
326.333 137.913 o
218.654 -1 o
194.652 -1 o
297.864 188.122 o
365.8 128.977 o
179.171 26.1617 o
217.955 101.527 o
236.804 173.648 o
314.279 121.291 o
294.177 142.289 o
322.486 135.652 o
362.173 87.1374 o
224.884 117.598 o
286.572 128.77 o
310.96 155.45 o
277.865 107.415 o
287.922 128.06 o
301.725 128.1 o
162.2 169.469 o
324.801 106.757 o
268.569 174.006 o
379.39 148.871 o
184.43 60.5716 o
336.333 42.562 o
208.085 112.261 o
322.116 72.8657 o
185.269 33.4132 o
207.463 102.637 o
274.352 126.614 o
269.694 152.17 o
256.966 126.756 o
275.39 156.372 o
290.414 105.57 o
257.336 121.775 o
268.758 161.131 o
263.678 149.877 o
169.401 12.7307 o
318.983 118.323 o
268.687 106.039 o
308.798 148.117 o
265.436 166.608 o
252.521 126.918 o
238.267 121.415 o
294.876 162.031 o
271.983 156.059 o
263.829 147.48 o
274.833 132.984 o
250.035 115.881 o
261.945 117.745 o
186.871 129.269 o
277.867 151.307 o
264.721 144.548 o
433 120.866 o
433 109.031 o
239.373 100.719 o
263.054 134.719 o
179.383 28.6142 o
266.043 107.79 o
294.761 160.597 o
282.879 135.689 o
283.728 121.696 o
224.814 118.067 o
290.141 132.634 o
290.638 146.781 o
271.185 151.365 o
425.72 47.2425 o
296.519 96.7785 o
203.473 -1 o
193.423 -1 o
239.771 165.228 o
193.227 69.8915 o
311.754 171.1 o
301.051 162.261 o
211.647 53.0476 o
254.971 179.498 o
251.082 138.037 o
350.279 134.409 o
187.96 87.4956 o
279.603 133.714 o
276.44 141.746 o
187.798 -1 o
186.01 -1 o
274.474 147.751 o
234.645 128.848 o
224.846 33.6571 o
266.939 135.858 o
334.13 161.651 o
269.912 160.99 o
306.178 146.876 o
309.335 106.832 o
310.009 114.915 o
281.399 135.483 o
295.229 135.695 o
282.839 106.364 o
276.975 124.678 o
191.156 35.6864 o
286.956 143.53 o
238.126 123.594 o
304.191 109.998 o
283.625 99.2159 o
246.283 134.686 o
226.469 135.328 o
391.916 159.612 o
277.458 148.273 o
262.001 130.531 o
298.893 55.5985 o
289.226 150.187 o
284.332 155.765 o
180.587 130.873 o
253.822 131.239 o
287.948 122.296 o
406.211 91.1189 o
214.874 64.4433 o
267.232 150.263 o
270.103 154.354 o
316.751 115.35 o
277.059 116.679 o
279.483 157.576 o
285.758 105.418 o
242.947 126.424 o
313.138 132.756 o
222.687 96.7023 o
299.446 123.149 o
287.733 150.443 o
402.036 63.4583 o
264.329 108.366 o
223.367 97.0956 o
296.481 125.892 o
186.201 33.0368 o
268.781 122.985 o
319.656 145.227 o
433 75.6122 o
433 58.8922 o
298.612 111.623 o
150.933 31.4803 o
290.426 101.826 o
288.96 154.55 o
290.867 84.3387 o
221.709 113.695 o
271.723 164.476 o
254.162 133.492 o
290.368 111.296 o
334.904 96.4976 o
211.427 73.6484 o
210.046 14.0105 o
433 19.7425 o
433 40.1619 o
266.368 110.396 o
342.482 85.8509 o
296.949 137.451 o
270.294 150.592 o
389.734 90.7063 o
218.201 31.9691 o
250.597 128.847 o
349.846 126.251 o
228.133 45.5235 o
303.419 114.978 o
263.089 126.698 o
307.027 94.7707 o
222.862 153.795 o
271.11 103.988 o
279.841 145.445 o
296.187 128.656 o
179.178 33.5188 o
291.042 111.403 o
195.302 -1 o
187.17 -1 o
275.873 140.764 o
321.238 131.079 o
224.305 135.256 o
266.044 189.352 o
283.225 201.496 o
305.531 137.84 o
294.158 165.943 o
322.394 117.463 o
240.272 158.389 o
310.986 138.927 o
282.26 125.416 o
432.02 80.4177 o
226.211 99.2176 o
280.771 117.512 o
314.993 153.247 o
293.423 139.121 o
244.837 136.395 o
263.546 145.296 o
282.532 117.92 o
266.857 150.29 o
274.38 118.451 o
323.663 151.44 o
433 109.081 o
433 104.586 o
328.448 106.423 o
267.86 152.65 o
255.385 131.609 o
289.538 128.94 o
238.859 151.463 o
299.225 162.377 o
270.971 105.015 o
278.885 156.738 o
274.496 92.3173 o
197.043 70.7048 o
280.229 135.841 o
290.593 115.51 o
285.49 170.529 o
363.779 140.382 o
259.476 115.807 o
256.32 146.88 o
188.968 104.763 o
296.447 93.2884 o
253.261 163.345 o
277.275 125.602 o
272.426 122.52 o
236.106 101.01 o
179.926 70.3618 o
306.068 159.62 o
267.12 120.203 o
217.44 206.968 o
269.718 152.32 o
282.723 101.774 o
291.984 86.9048 o
340.832 116.168 o
384.001 52.9406 o
301.127 133.591 o
226.387 119.76 o
184.31 148.553 o
290.019 111.439 o
238.722 74.535 o
370.427 128.77 o
315.981 116.759 o
293.022 136.367 o
216.933 122.778 o
302.892 109.978 o
282.728 152.352 o
172.536 44.2742 o
306.072 99.4092 o
353.03 171.577 o
303.35 157.405 o
288.935 131.901 o
283.022 145.11 o
225.407 163.605 o
301.551 173.891 o
298.435 132.739 o
181.596 -0.462345 o
282.545 144.259 o
284.959 128.707 o
261.625 123.135 o
193.208 36.4539 o
330.847 101.176 o
330.376 163.938 o
222.858 126.344 o
224.488 60.3338 o
269.884 121.17 o
260.154 145.755 o
433 58.5842 o
433 61.5644 o
247.859 164.344 o
226.848 100.757 o
295.979 129.44 o
369.137 153.855 o
282.776 103.087 o
236.831 136.307 o
281.542 112.724 o
238.865 94.9691 o
231.033 133.353 o
206.032 -1 o
190.894 -1 o
195.019 42.1221 o
256.304 144.241 o
183.012 8.05575 o
292.252 97.0363 o
321.997 134.587 o
300.659 99.2616 o
312.867 175.268 o
212.21 -1 o
243.338 -1 o
400.131 129.27 o
304.605 136.427 o
279.399 154.798 o
274.288 167.006 o
231.173 158.409 o
433 56.1927 o
433 59.2644 o
292.425 145.722 o
414.511 78.1813 o
237.178 95.6961 o
279.153 171.044 o
224.918 53.6519 o
233.831 115.004 o
248.447 128.58 o
210.683 154.49 o
282.45 154.558 o
298.863 119.458 o
297.97 130.244 o
294.985 114.472 o
249.017 -1 o
241.09 -1 o
280.656 109.799 o
392.655 81.8614 o
275.402 124.41 o
267.929 152.217 o
292.188 166.163 o
378.689 109.365 o
267.806 121.815 o
282.072 83.1572 o
286.267 129.192 o
269.782 178.376 o
385.41 99.3869 o
190.676 43.1344 o
178.62 56.7445 o
187.255 94.7324 o
381.946 97.9131 o
290.544 160.179 o
280.135 145.923 o
320.121 111.98 o
351.956 120.064 o
264.33 145.113 o
245.932 141.702 o
386.238 119.859 o
273.482 82.237 o
291.037 132.094 o
298.101 122.095 o
287.79 131.647 o
252.575 122.071 o
301.421 149.234 o
248.509 128.012 o
296.327 140.452 o
298.275 131.755 o
213.163 92.0331 o
304.204 127.701 o
303.21 63.4118 o
256.905 104.491 o
251.786 158.422 o
251.356 197.402 o
275.448 126.031 o
278.722 153.98 o
268.981 170.062 o
228.512 96.1575 o
167.611 16.9355 o
266.039 160.292 o
173.082 29.7571 o
353.009 81.1977 o
371.662 139.995 o
306.898 118.317 o
325.255 123.927 o
303.147 157.208 o
303.347 125.585 o
269.722 141.009 o
278.259 134.597 o
278.551 135.845 o
352.593 96.0795 o
265.89 150.974 o
266.455 142.425 o
278.918 129.245 o
281.603 120.101 o
242.966 105.303 o
262.418 111.197 o
264.37 102.369 o
305.979 102.671 o
433 55.6637 o
433 41.2717 o
179.535 105.706 o
174.862 22.1629 o
177.326 17.3198 o
197.988 56.9338 o
337.413 84.3947 o
295.566 166.194 o
262.242 134.805 o
268.567 79.4416 o
203.432 78.8857 o
292.323 104.88 o
254.108 172.069 o
283.293 142.895 o
321.944 151.794 o
308.454 101.244 o
227.567 111.387 o
329.973 148.352 o
302.305 144.264 o
226.392 50.1475 o
218.5 111.496 o
296.977 152.477 o
267.558 85.1543 o
285.332 128.73 o
280.26 126.637 o
249.35 147.47 o
259.911 132.929 o
189.978 31.365 o
297.761 74.8012 o
324.376 98.3021 o
251.314 167.208 o
183.366 21.4383 o
275.375 104.415 o
433 116.584 o
433 115.937 o
264.16 95.1724 o
187.848 59.6792 o
265.555 145.479 o
270.26 132.44 o
383.354 124.391 o
273.097 164.949 o
292.384 115.52 o
268.821 62.7496 o
261.955 100.191 o
362.321 71.0805 o
259.605 159.434 o
261.668 128.424 o
280.938 121.706 o
290.636 107.548 o
252.312 102.436 o
250.236 156.834 o
272.169 117.382 o
247.388 144.395 o
307.197 124.385 o
287.007 111.421 o
284.737 161.728 o
260.874 141.031 o
189.447 18.7217 o
345.549 140.228 o
223.453 -1 o
220.924 -1 o
335.069 142.369 o
302.985 104.461 o
307.809 181.255 o
197.399 59.4475 o
312.916 125.26 o
292.958 146.847 o
255.01 124.539 o
260.794 108.585 o
396.4 98.4073 o
249.22 185.531 o
255.684 63.8955 o
433 39.5652 o
433 91.5578 o
282.546 164.38 o
307.485 130.887 o
282.981 140.701 o
259.145 133.352 o
184.117 50.0484 o
319.167 135.248 o
300.68 147.997 o
371.218 117.401 o
295.186 94.284 o
260.39 108.002 o
302.157 130.556 o
314.467 99.7999 o
257.36 166.396 o
313.36 91.0807 o
304.795 105.71 o
258.01 152.983 o
236.728 -1 o
248.183 -1 o
274.962 136.309 o
190.4 27.7695 o
249.251 139.479 o
304.137 102.46 o
264.725 155.846 o
335.202 83.8293 o
265.424 180.386 o
274.768 139.498 o
374.798 120.346 o
271.491 139.033 o
273.087 171.286 o
289.923 162.953 o
267.333 110.393 o
313.351 105.137 o
292.364 136.33 o
269.85 101.668 o
328.361 110.054 o
247.459 149.383 o
204.77 84.2561 o
306.148 134.111 o
265.178 158.89 o
270.898 164.12 o
297.665 164.055 o
271.24 116.71 o
291.215 164.753 o
294.354 119.665 o
229.335 104.733 o
261.483 121.16 o
325.108 145.399 o
287.714 133.209 o
257.867 151.96 o
254.066 168.102 o
268.337 143.63 o
183.633 -1 o
186.659 -1 o
299.738 131.613 o
239.4 88.5321 o
172.789 10.0638 o
308.81 130.048 o
261.754 132.943 o
294.736 147.308 o
429.277 84.7326 o
289.295 100.636 o
253.893 141.894 o
252.733 164.157 o
204.315 86.7165 o
297.262 97.6469 o
262.359 139.722 o
281.736 140.848 o
311.17 145.483 o
263.497 87.5821 o
246.682 90.3175 o
251.867 117.446 o
285.514 232.218 o
180.739 24.2111 o
311.536 139.351 o
365.51 78.6511 o
307.911 165.656 o
256.048 138.873 o
179.481 15.1166 o
304.461 126.722 o
308.203 117.36 o
235.464 128.792 o
268.208 130.321 o
248.61 144.879 o
303.856 198.112 o
295.078 112.414 o
199.65 82.1395 o
277.112 108.444 o
261.915 140.799 o
283.435 114.413 o
267.063 137.563 o
265.736 143.937 o
281.94 161.395 o
214.282 61.9378 o
249.089 144.441 o
182.244 12.027 o
260.021 137.163 o
388.706 112.866 o
282.822 115.039 o
282.936 142.464 o
270.627 130.251 o
291.027 135.044 o
220.685 97.1017 o
208.37 93.013 o
313.43 112.15 o
267.119 88.4721 o
292.413 144.1 o
252.025 113.903 o
276.308 109.639 o
242.669 70.3375 o
271.712 139.064 o
286.22 155.59 o
215.371 97.2987 o
252.907 147.977 o
302.452 94.6257 o
299.102 86.5433 o
433 78.7814 o
433 77.4787 o
228.798 81.8627 o
229.811 109.765 o
253.078 136.802 o
260.786 143.382 o
274.27 35.6776 o
267.403 142.317 o
207.673 92.971 o
185.244 -1 o
188.363 -1 o
287.08 173.66 o
267.475 152.649 o
281.974 144.365 o
260.594 145.239 o
337.856 155.856 o
235.947 132.001 o
262.49 165.841 o
258.05 162.324 o
274.288 71.0957 o
279.436 154.655 o
360.116 115.227 o
264.888 93.454 o
262.921 174.582 o
319.487 124.428 o
274.706 127.396 o
241.747 65.7336 o
300.708 138.817 o
238.831 35.4952 o
302.582 131.587 o
279.078 145.769 o
263.287 136.032 o
252.601 190.867 o
267.94 166.385 o
249.501 136.268 o
433 108.668 o
433 114.759 o
301.823 167.915 o
419.778 88.2939 o
280.237 21.6511 o
303.684 134.142 o
433 85.2219 o
433 86.4179 o
423.222 90.6506 o
236.365 144.909 o
257.867 113.358 o
256.279 123.811 o
303.431 128.242 o
267.831 130.786 o
179.161 11.0717 o
260.434 138.284 o
252.147 101.643 o
219.408 85.9864 o
250.815 117.588 o
338.909 111.565 o
346.303 80.0708 o
186.027 61.7634 o
253.279 125.22 o
321.044 123.386 o
264.723 131.168 o
323.382 96.7364 o
253.678 106.037 o
218.602 106.769 o
236.303 114.44 o
258.161 144.765 o
433 64.1727 o
433 65.2333 o
294.247 137.637 o
274.707 177.026 o
162.262 -1 o
183.793 -1 o
331.457 138.165 o
209.556 124.135 o
325.669 128.465 o
290.131 158.216 o
278.509 137.582 o
270.154 153.336 o
315.871 97.7525 o
167.628 0.968823 o
294.51 151.415 o
189.487 60.897 o
305.63 116.007 o
335.234 146.166 o
270.035 125.41 o
261.224 124.342 o
241.656 103.77 o
253.698 216.922 o
433 70.5136 o
433 56.9692 o
263.531 115.672 o
267.383 173.287 o
268.41 193.02 o
283.188 156.555 o
290.81 167.347 o
306.48 192.318 o
247.681 108.031 o
213.365 108.519 o
433 45.9368 o
433 62.0098 o
270.832 130.933 o
281.583 117.389 o
271.112 93.8894 o
271.927 149.822 o
262.097 126.38 o
318.937 118.429 o
254.469 143.211 o
256.734 100.34 o
284.955 153.979 o
424.983 108.81 o
296.018 160.378 o
285.497 133.633 o
280.292 141.286 o
265.678 117.748 o
256.796 111.548 o
268.214 178.161 o
282.377 157.321 o
296.885 167.05 o
283.078 165.423 o
263.81 73.205 o
359.083 142.26 o
287.589 158.504 o
276.993 183.819 o
273.93 145.552 o
277.54 156.871 o
264.391 117.666 o
244.26 154.477 o
293.364 163.575 o
433 92.7675 o
433 81.8009 o
247.309 132.539 o
321.233 118.249 o
308.572 108.87 o
274.654 150.645 o
333.742 143.095 o
177.157 12.8088 o
284.255 153.605 o
362.18 112.761 o
274.845 166.71 o
294.643 171.111 o
318.022 136.851 o
312.332 90.8544 o
268.098 123.228 o
243.324 30.5103 o
277.243 154.488 o
272.553 151.14 o
278.426 124.755 o
285.725 204.668 o
243.069 125.682 o
283.484 148.321 o
267.058 139.048 o
257.58 159.085 o
185.734 -1 o
196.479 -1 o
263.744 95.8834 o
279.728 166.996 o
253.602 154.327 o
273.959 125.167 o
300.433 116.031 o
276.246 145.19 o
291.021 153.232 o
324.223 121.391 o
312.288 126.257 o
246.697 125.76 o
343.558 151.658 o
370.457 107.522 o
283.199 181.331 o
257.439 120.101 o
283.493 137.663 o
273.592 107.914 o
385.275 136.466 o
278.281 160.431 o
265.629 140.686 o
323.095 139.364 o
244.899 91.4959 o
317.804 141.073 o
283.646 135.213 o
349.538 123.475 o
243.068 196.117 o
201.125 109.384 o
248.451 144.052 o
294.512 126.327 o
285.183 136.117 o
270.99 161.939 o
284.992 102.478 o
295.701 101.742 o
285.595 135.112 o
208.35 10.5891 o
290.092 117.037 o
297.838 52.9035 o
249.838 75.471 o
218.965 119.509 o
255.693 128.014 o
185.879 33.1223 o
380.819 105.354 o
277.476 117.873 o
175.928 2.24454 o
310.854 88.2232 o
262.407 155.047 o
246.723 128.205 o
186.157 -1 o
203.765 -1 o
318.234 135.719 o
311.349 105.068 o
311.166 110.942 o
266.89 109.277 o
182.6 31.6143 o
286.226 147.531 o
256.598 137.608 o
299.374 104.827 o
228.146 148.494 o
433 50.9972 o
433 83.8297 o
248.377 144.709 o
306.426 140.977 o
304.274 126.871 o
272.553 134.364 o
433 72.0642 o
433 71.6806 o
256.521 123.281 o
281.714 167.031 o
216.464 85.7781 o
329.652 124.596 o
359.181 90.8561 o
433 65.0003 o
433 74.5051 o
289.871 143.549 o
287.48 149.132 o
297.859 146.396 o
312.445 138.587 o
357.142 146.705 o
307.189 135.194 o
318.081 145.473 o
348.064 107.243 o
285.49 147.303 o
261.522 190.67 o
404.155 103.758 o
272.025 154.313 o
272.17 58.1776 o
268.21 117.091 o
166.783 -1 o
154.78 -1 o
259.435 156.963 o
275.707 102.115 o
316.894 112.233 o
194.521 66.0831 o
294.183 137.095 o
274.606 97.8268 o
263.091 111.425 o
310.215 106.762 o
229.964 95.6971 o
264.207 171.831 o
206.638 -1 o
217.928 -1 o
274.904 120.37 o
318.24 94.029 o
330.628 118.611 o
282.711 109.954 o
179.121 10.9703 o
267.461 139.825 o
293.976 130.547 o
302.578 104.648 o
316.16 176.283 o
211.412 -1 o
210.03 -1 o
279.131 154.836 o
353.781 138.667 o
190.017 54.7427 o
330.349 126.864 o
362.811 113.89 o
305.812 105.793 o
371.087 140.277 o
278.286 143.812 o
166.994 27.2087 o
317.506 141.286 o
284.255 137.853 o
299.091 122.36 o
278.837 139.251 o
294.554 144.65 o
267.519 139.716 o
296.159 185.211 o
267.183 162.122 o
195.579 83.2516 o
280.681 126.572 o
307.874 131.482 o
221.569 20.2672 o
291 169.391 o
233.198 213.783 o
254.463 110.147 o
296.745 96.7214 o
289.181 153.736 o
192.4 35.1768 o
314.602 133.561 o
307.916 77.9295 o
296.482 153.594 o
264.141 119.315 o
238.788 94.3489 o
286.889 156.682 o
277.156 143.001 o
282.045 177.529 o
201.37 83.7814 o
259.969 174.277 o
310.856 148.399 o
173.655 30.2705 o
297.319 120.74 o
251.152 160.634 o
433 76.3597 o
433 66.7603 o
231.588 122.786 o
271.595 101.512 o
307.725 118.248 o
259.909 141.763 o
256.402 121.104 o
257.674 172.791 o
286.724 111.186 o
276.479 122.243 o
244.015 151.856 o
288.966 126.44 o
295.285 127.127 o
430.998 123.818 o
433 121.556 o
433 44.4296 o
277.101 143.511 o
261.532 111.001 o
244.809 10.7235 o
254.452 154.65 o
265.5 122.729 o
262.699 105.089 o
310.868 133.785 o
306.835 118.48 o
401.015 93.6369 o
268.229 157.644 o
276.114 140.296 o
239.635 149.191 o
304.181 142.756 o
283.645 141.47 o
216.723 45.7159 o
176.104 4.21807 o
289.626 114.616 o
164.621 57.0354 o
274.031 99.9069 o
289.005 109.678 o
259.808 79.8081 o
271.403 139.806 o
269.292 145.423 o
340.498 161.706 o
299.726 134.947 o
294.919 125.213 o
289.343 149.672 o
344.182 35.9471 o
279.966 134.894 o
244.547 152.846 o
258.524 149.501 o
289.22 135.647 o
381.71 65.1952 o
275.773 104.945 o
280.631 162.883 o
274.716 137.633 o
311.377 97.8429 o
411.207 87.6919 o
264.561 93.9533 o
275.081 168.296 o
227.393 151.352 o
306.923 146.208 o
290.093 154.649 o
328.91 115.276 o
433 73.5514 o
433 70.3505 o
296.599 120.695 o
297.623 72.1157 o
290.971 76.4392 o
221.565 133.709 o
279.065 143.744 o
251.639 134.457 o
173.044 -1 o
199.951 -1 o
312.567 113.646 o
433 68.5553 o
433 82.9854 o
265.268 180.228 o
321.504 134.16 o
270.34 -1 o
187.667 -1 o
186.908 32.6633 o
204.363 88.9979 o
232.624 135.256 o
324.264 119.005 o
301.647 167.561 o
322.113 83.8415 o
339.349 125.224 o
362.952 109.61 o
255.441 143.694 o
287.53 166.162 o
279.299 168.072 o
267.402 145.604 o
266.551 138.539 o
249.393 162.257 o
331.646 129.525 o
343.896 142.677 o
193.28 52.1169 o
315.742 128.961 o
292.714 135.018 o
247.7 162.043 o
289.862 164.581 o
269.438 170.768 o
259.338 197.468 o
314.997 127.365 o
274.139 134.24 o
365.569 105.122 o
260.08 156.842 o
272.721 150.778 o
415.021 93.49 o
248.662 115.528 o
259.964 185.314 o
253.852 117.137 o
246.349 139.875 o
237.854 160.156 o
252.682 125.129 o
239.166 124.022 o
259.974 139.227 o
292.787 129.993 o
318.6 116.002 o
323.516 141.53 o
291.852 120.21 o
285.649 138.405 o
260.892 156.082 o
292.805 102.175 o
278.743 131.628 o
254.366 172.583 o
274.138 125.916 o
312.07 143.849 o
307.995 144.696 o
306.392 118.122 o
290.684 159.796 o
265.86 114.882 o
305.711 163.82 o
267.869 158.213 o
287.639 122.693 o
259.806 90.0659 o
321.941 141.021 o
181.802 41.9844 o
260.459 105.783 o
265.649 99.2059 o
286.774 126.472 o
308.894 29.0713 o
172.34 36.1414 o
369.245 127.883 o
271.518 129.833 o
291.777 127.749 o
288.97 117.869 o
212.948 81.3927 o
254.787 140.583 o
291.515 107.709 o
221.186 110.728 o
297.115 145.615 o
258.386 154.169 o
189.275 66.0369 o
307.777 136.927 o
339.192 97.7522 o
245.594 163.592 o
270.77 104.855 o
295.087 110.594 o
231.397 90.3018 o
251.092 92.9539 o
433 106.014 o
433 94.7953 o
164.497 24.7173 o
262.949 138.154 o
288.82 120.092 o
204.202 -1 o
179.245 -1 o
197.822 83.5213 o
266.574 142.614 o
254.378 161.567 o
329.057 167.861 o
172.88 28.3059 o
284.172 145.092 o
189.941 25.814 o
276.608 128.471 o
280.391 148.765 o
295.068 151.042 o
268.347 151.367 o
242.208 154.841 o
280.149 160.536 o
248.121 143.58 o
265.529 170.548 o
295.662 122.391 o
284.966 108.775 o
299.587 161.633 o
287.276 118.037 o
243.976 111.57 o
272.642 157.957 o
303.716 171.917 o
301.489 156.608 o
238.437 109.29 o
265.588 -1 o
268.462 -1 o
271.916 148.51 o
183.086 4.32396 o
216.086 110.187 o
308.205 146.487 o
296.755 153.623 o
302.119 136.884 o
268.079 171.264 o
177.417 60.8456 o
248.861 133.942 o
276.996 143.285 o
309.734 106 o
391.353 95.911 o
261.759 115.823 o
222.5 78.8368 o
339.101 141.396 o
267.625 148.079 o
293.497 138.443 o
264.621 143.03 o
232.584 158.525 o
273.413 165.725 o
336.138 112.287 o
334.395 108.174 o
265.373 147.529 o
267.516 126.549 o
229.356 94.828 o
186.052 13.8554 o
283.697 142.622 o
281.945 151.788 o
309.276 163.483 o
187.493 19.2797 o
300.137 91.7223 o
433 144.531 o
433 145.324 o
235.152 124.718 o
287.001 130.783 o
188.83 58.4113 o
228.517 144.536 o
292.73 130.788 o
303.428 156.75 o
281.119 147.912 o
250.765 130.502 o
433 87.9959 o
433 89.169 o
306.371 121.897 o
271.827 119.743 o
363.219 185.686 o
259.095 134.551 o
296.716 160.482 o
198.429 77.7446 o
418.161 121.282 o
321.454 102.415 o
264.53 137.414 o
254.694 133.37 o
291.963 141.252 o
148.19 115.892 o
289.584 113.493 o
352.58 116.123 o
250.89 146.801 o
416.472 108.313 o
288.188 101.018 o
258.486 160.128 o
306.745 146.21 o
305.175 159.832 o
288.954 102.933 o
258.845 118.558 o
313.953 137.442 o
246.573 144.619 o
279.593 101.364 o
293.623 147.894 o
292.812 122.485 o
291.476 155.993 o
284.673 109.708 o
218.576 68.0412 o
360.202 94.6083 o
277.525 138.816 o
245.8 99.773 o
272.076 118.954 o
279.986 123.459 o
335.681 110.6 o
362.601 103.321 o
283.512 161.964 o
204.396 77.0443 o
111.674 143.16 o
213.937 87.995 o
300.093 149.671 o
243.445 117.969 o
354.543 45.7654 o
190.003 31.8413 o
300.593 122.31 o
289.361 129.46 o
324.962 121.258 o
181.426 92.1054 o
248.487 171.595 o
309.992 151.584 o
318.31 106.652 o
313.846 118.304 o
255.943 103.801 o
270.473 114.641 o
297.925 98.6236 o
304.934 71.9549 o
263.115 129.743 o
306.668 155.311 o
263.551 141.388 o
269.449 99.7256 o
251.127 -1 o
235.866 -1 o
250.431 126.069 o
279.34 124.048 o
276.889 171.354 o
342.674 88.2102 o
433 76.879 o
433 81.2576 o
252.793 141.105 o
291.044 100.312 o
166.294 6.39607 o
372.88 92.1726 o
424.312 118.811 o
308.337 76.8705 o
264.346 134.959 o
301.422 -1 o
273.288 -1 o
215.349 92.4406 o
231.055 112.822 o
253.94 121.87 o
189.406 49.7937 o
294.576 133.819 o
285.082 116.997 o
353.23 127.588 o
207.421 105.829 o
164.101 95.85 o
180.849 22.1544 o
388.403 121.508 o
262.233 155.633 o
303.603 174.933 o
304.859 154.503 o
279.732 169.21 o
205.932 -1 o
208.476 -1 o
294.451 119.289 o
297.341 119.664 o
248.902 114.587 o
347.517 102.854 o
276.421 147.402 o
290.627 95.5297 o
274.152 129.066 o
261.325 94.9249 o
297.304 113.516 o
285.763 141.178 o
292.911 121.68 o
269.288 136.049 o
337.248 102.375 o
244.78 151.892 o
294.062 136.578 o
272.261 116.755 o
292.034 116.702 o
262.465 134.63 o
223.52 51.6412 o
183.18 -1 o
182.832 -1 o
265.911 113.599 o
289.961 161.086 o
262.893 126.963 o
301.011 123.089 o
303.469 106.705 o
202.391 50.1321 o
314.016 108.343 o
322.416 175.313 o
308.132 106.686 o
285.378 157.054 o
250.3 148.049 o
312.044 99.3491 o
305.741 131.65 o
249.055 98.1527 o
433 64.2889 o
433 57.7601 o
287.714 77.8249 o
313.042 170.147 o
328.326 139.221 o
298.729 148.331 o
432.696 96.2842 o
281.02 128.057 o
235.479 58.2523 o
250.094 154.369 o
282.328 107.29 o
291.899 132.042 o
299.494 64.6389 o
262.007 168.458 o
210.595 72.0074 o
308.227 172.255 o
307.142 156.697 o
287.023 138.005 o
186.512 29.6374 o
251.294 128.654 o
284.113 129 o
273.824 167.267 o
273.672 129.987 o
293.104 155.553 o
214.246 117.881 o
218.864 128.446 o
311.148 86.7452 o
301.928 86.6327 o
433 119.846 o
433 119.801 o
218.34 -1 o
213.183 -1 o
334.8 95.6853 o
315.988 88.2038 o
246.062 92.9792 o
301.768 118.519 o
256.034 154.506 o
255.556 154.106 o
375.368 97.9245 o
274.019 118.489 o
319.28 130.335 o
333.915 135.584 o
295.154 134.441 o
293.287 145.749 o
433 79.2801 o
433 73.2953 o
336.961 92.9767 o
256.572 100.041 o
306.966 126.141 o
218.318 71.5755 o
252.288 87.736 o
297.299 163.588 o
286.7 166.394 o
256.902 167.019 o
272.891 106.742 o
380.127 138.521 o
290.18 99.9181 o
262.745 144.662 o
295.301 115.528 o
314.289 102.837 o
261.82 138.56 o
264.135 140.72 o
364.33 102.747 o
260.976 164.372 o
262.659 125.441 o
301.078 96.8674 o
311.609 109.592 o
287.454 150.84 o
293.189 149.383 o
184.825 -1 o
183.658 -1 o
226.761 154.826 o
301.284 131.811 o
325.522 152.247 o
279.108 144.414 o
309.166 132.858 o
433 99.3934 o
433 108.425 o
275.661 170.882 o
256.629 88.9607 o
433 82.9806 o
433 87.0586 o
283.717 136.994 o
257.797 147.689 o
264.01 211.952 o
404.274 106.95 o
296.114 116.431 o
283.412 124.552 o
392.851 52.1773 o
297.173 148.139 o
281.656 131.741 o
315.018 162.062 o
173.733 68.4464 o
262.486 100.547 o
308.84 129.856 o
263.192 190.007 o
264.138 90.8279 o
216.229 -1 o
201.55 -1 o
259.014 151.541 o
323.961 96.0431 o
296.955 163.392 o
252.688 120.999 o
274.648 154.978 o
374.339 114.134 o
388.185 56.2759 o
260.791 126.418 o
306.564 172.381 o
176.147 40.9611 o
284.778 127.085 o
272.181 140.119 o
317.642 103.104 o
277.975 156.355 o
285.666 144.808 o
294.002 126.558 o
284.953 161.967 o
299.487 123.348 o
243.418 150.668 o
339.263 86.8337 o
263.719 139.038 o
253.591 124.623 o
317.913 139.959 o
256.299 155.821 o
210.028 154.871 o
209.621 79.3705 o
305.253 68.8197 o
268.41 145.933 o
357.021 99.1974 o
280.533 151.45 o
282.508 143.333 o
296.908 109.496 o
269.918 166.496 o
313.273 140.827 o
371.519 123.667 o
299.14 128.517 o
313.422 111.677 o
203.512 58.6028 o
235.092 133.114 o
187.313 32.4642 o
310.403 157.887 o
307.823 98.4478 o
267.663 143.779 o
268.474 152.651 o
268.477 80.93 o
256.327 174.192 o
275.721 118.529 o
279.314 128.092 o
265.384 130.43 o
243.887 129.406 o
266.759 137.757 o
198.824 84.2694 o
251.57 151.008 o
433 89.1901 o
433 83.4084 o
266.445 95.8765 o
282.885 158.771 o
268.538 100.461 o
343.733 52.8193 o
273.765 152.027 o
262.152 128.985 o
182.625 22.2353 o
292.415 110.232 o
282.542 145 o
292.269 159.145 o
285.626 152.69 o
268.508 156.586 o
307.415 124.176 o
288.146 126.617 o
223.808 50.8722 o
302.582 178.643 o
279.011 107.946 o
358.603 122.062 o
276.056 164.051 o
296.409 129.108 o
258.449 89.9703 o
233.028 81.146 o
258.147 128.209 o
238.097 159.442 o
180.436 43.4471 o
315.06 129.594 o
298.023 113.661 o
266.028 134.398 o
239.282 151.789 o
184.198 47.7963 o
300.06 72.031 o
229.241 118.436 o
245.868 157.814 o
433 70.3806 o
433 68.3983 o
252.96 138.81 o
264.926 129.243 o
288.528 75.5292 o
184.515 40.3677 o
297.332 147.808 o
264.786 125.089 o
256.915 118.594 o
272.394 120.709 o
284.655 100.117 o
414.231 76.939 o
306.413 138.784 o
433 51.1512 o
433 47.5108 o
279.416 146.901 o
189.183 27.321 o
200.167 46.6819 o
241.217 96.0632 o
276.072 175.911 o
276.188 142.877 o
309.402 139.586 o
255.794 125.241 o
264.972 83.6376 o
319.449 98.6726 o
272.746 130.26 o
269.467 130.156 o
410.53 102.579 o
268.153 184.212 o
296.196 147.71 o
290.072 161.274 o
279.618 157.459 o
279.762 146.921 o
312.526 141.399 o
312.703 181.112 o
251.486 123.408 o
268.616 138.087 o
291.487 119.428 o
333.818 182.39 o
373.512 143.179 o
170.726 22.0981 o
272.356 105.444 o
265.589 -1 o
319.881 -1 o
358.159 129.633 o
400.074 74.2998 o
192.269 8.72078 o
286.055 157.269 o
292.774 156.139 o
276.67 136.673 o
310.661 106.75 o
307.461 110.156 o
265.864 141.982 o
433 98.4391 o
433 95.0765 o
299.69 123.464 o
251.095 139.668 o
378.884 123.516 o
292.98 147.991 o
267.94 148.594 o
279.997 97.9489 o
261.609 122.01 o
315.459 123.408 o
180.603 -1 o
178.551 -1 o
286.064 148.047 o
265.004 115.726 o
136.145 61.5206 o
263.051 138.557 o
243.357 127.582 o
222.528 96.0219 o
283.033 105.034 o
226.999 104.629 o
348.729 132.682 o
280.941 97.4841 o
302.329 142.81 o
240.446 102.304 o
266.266 169.401 o
213.212 91.1346 o
293.806 122.537 o
261.305 124.716 o
329.543 167.088 o
237.8 158.098 o
262.437 103.863 o
317.5 128.629 o
250.971 95.1363 o
248.485 140.231 o
267.641 137.009 o
297.158 134.101 o
197.376 42.6901 o
176.835 35.3484 o
196.756 32.9511 o
242.381 121.628 o
321.669 140.267 o
301.328 155.601 o
175.485 20.9336 o
317.051 148.8 o
259.534 142.932 o
351.216 113.162 o
260.808 108.525 o
260.347 163.951 o
384.254 102.433 o
263.589 98.087 o
253.579 144.86 o
292.141 144.089 o
174.974 23.2118 o
299.739 122.895 o
244.458 48.2037 o
279.251 148.764 o
277.207 135.37 o
310.902 109.797 o
272.936 124.597 o
272.424 129.483 o
266.027 114.712 o
308.215 140.908 o
273.879 91.7999 o
317.218 165.576 o
264.989 140.18 o
277.219 167.795 o
330.245 124.566 o
288.078 86.7786 o
277.165 132.861 o
177.224 35.9525 o
269.046 98.29 o
335.391 125.158 o
239.852 131.316 o
260.78 147.512 o
290.128 107.28 o
265.392 134.197 o
213.913 85.5455 o
258.325 123.367 o
274.283 149.328 o
322.396 116.937 o
251.617 129.438 o
284.137 120.19 o
339.449 75.8659 o
237.202 141.583 o
258.038 126.739 o
433 101.22 o
433 101.823 o
182.615 165.797 o
214.55 85.7327 o
383.808 45.2504 o
263.679 168.571 o
303.767 102.979 o
433 91.7559 o
433 91.9475 o
283.485 106.083 o
357.326 123.88 o
255.362 132.049 o
254.392 162.022 o
292.802 125.352 o
255.407 112.153 o
284.982 110.122 o
299.412 96.8583 o
290.356 145.008 o
322.669 110.589 o
330.681 141.683 o
242.775 88.2618 o
264.24 113.84 o
311.118 103.248 o
244.674 132.344 o
237.101 173.812 o
277.812 165.757 o
298.494 181.729 o
215.564 78.7603 o
301.698 167.942 o
236.369 148.282 o
289.769 98.0172 o
204.497 71.2717 o
178.356 71.1314 o
260.361 103.649 o
322.631 88.0271 o
229.312 131.064 o
270.341 143.058 o
260.869 121.691 o
285.133 122.29 o
282.078 159.9 o
298.002 135.767 o
283.625 143.344 o
273.751 126.742 o
261.134 96.4233 o
245.064 119.814 o
306.747 156.086 o
275.885 120.876 o
296.203 144.939 o
300.418 132.669 o
344.77 138.188 o
239.192 167.93 o
287.485 106.123 o
231.763 107.196 o
302.93 139.925 o
299.545 154.168 o
312.576 136.652 o
433 113.811 o
433 103.282 o
275.386 90.1289 o
267.554 146.838 o
350.354 76.3662 o
296.423 147.397 o
311.597 132.628 o
267.291 101.946 o
297.055 149.456 o
295.538 147.527 o
293.804 140.172 o
257.913 134.929 o
250.454 93.2599 o
298.297 140.697 o
275.011 175.712 o
309.044 164.883 o
396.704 105.015 o
188.061 24.6448 o
176.982 -1 o
178.666 -1 o
237.935 127.493 o
242.855 156.4 o
247.652 176.78 o
170.016 15.6607 o
330.138 98.9795 o
282.234 142.213 o
290.211 94.7596 o
241.827 141.493 o
289.673 130.871 o
181.111 124.621 o
309.671 112.437 o
280.092 137.122 o
251.463 132.887 o
255.943 82.356 o
259.357 203.403 o
275.866 135.224 o
192.067 71.0248 o
272.473 66.6974 o
321.773 148.329 o
254.378 150.491 o
288.491 117.632 o
304.946 113.384 o
302.678 114.707 o
395.848 184.953 o
312.307 177.682 o
307.718 149.124 o
278.056 120.794 o
282.392 136.352 o
350.286 103.529 o
302.662 125.868 o
353.718 144.672 o
284.517 88.5308 o
375.743 89.6621 o
297.666 146.876 o
377.576 184.91 o
275.153 168.7 o
293.869 113.507 o
322.971 112.634 o
392.363 149.874 o
303.98 120.1 o
403.621 117.191 o
338.632 124.429 o
330.644 142.934 o
244.199 106.705 o
260.891 176.38 o
267.074 100.657 o
348.206 106.353 o
395.121 96.7032 o
228.708 168.802 o
260.748 93.0057 o
287.592 101.996 o
325.367 90.7852 o
296.705 140.621 o
361.891 117.698 o
219.602 -1 o
221.905 -1 o
282.431 47.3689 o
258.469 142.945 o
297.211 121.347 o
229.458 95.8973 o
190.175 59.9974 o
427.822 97.9859 o
271.498 130.74 o
309.598 83.6329 o
287.826 144.817 o
211.617 115.277 o
262.164 114.373 o
290.771 156.009 o
250.7 110.814 o
266.865 146.112 o
193.943 49.4446 o
287.824 79.661 o
292.912 120.673 o
307.861 143.123 o
248.868 166.843 o
324.685 107.53 o
279.865 174.974 o
291.452 173.984 o
263.986 127.442 o
284.653 145.388 o
253.292 131.245 o
259.329 157.401 o
323.635 100.738 o
256.489 113.029 o
291.195 175.095 o
258.374 81.5465 o
277.287 114.933 o
235.905 117.734 o
281.123 174.382 o
433 109.658 o
433 109.025 o
298.94 126.853 o
281.722 126.873 o
268.323 140.447 o
317.322 149.605 o
192.723 95.5391 o
294.362 154.709 o
256.213 147.427 o
238.855 110.003 o
282.107 91.6176 o
433 73.8331 o
433 79.7485 o
245.526 127.779 o
237.138 99.2819 o
242.314 97.6556 o
199.322 -1 o
227.323 -1 o
433 93.9649 o
433 112.483 o
298.621 137.074 o
262.146 126.63 o
277.506 114.233 o
276.839 168.703 o
309.379 147.443 o
297.423 118.34 o
299.034 121.433 o
237.334 105.311 o
288.25 174.242 o
417.413 129.78 o
298.562 62.5064 o
230.641 130.459 o
267.313 126.1 o
327.61 136.743 o
266.846 139.226 o
228.585 138.772 o
317.022 84.803 o
311.501 63.4708 o
263.194 176.199 o
272.242 121.975 o
299.103 115.941 o
227.985 79.1126 o
270.602 116.7 o
197.079 43.6354 o
292.286 172.398 o
287.729 129.709 o
302.197 131.503 o
283.64 154.621 o
199.648 98.9242 o
317.439 129.582 o
251.708 -1 o
247.489 -1 o
297.404 114.659 o
301.054 121.762 o
173.181 34.4922 o
281.091 75.3515 o
299.165 120.409 o
261.269 162.025 o
277.427 145.078 o
272.291 120.737 o
241.25 135.811 o
265.194 136.956 o
260.314 173.817 o
299.102 188.167 o
288.359 117.559 o
329.758 131.037 o
287.198 124.975 o
249.985 125.816 o
299.647 102.169 o
311.778 188.706 o
178.451 5.3103 o
310.243 111.514 o
195.107 58.6337 o
242.647 182.206 o
322.683 150.465 o
277.834 178.257 o
187.848 13.4619 o
288.933 150.661 o
234.818 148.604 o
179.344 0.846152 o
325.511 151.243 o
312.865 151.896 o
209.667 121.067 o
336.311 135.394 o
201.127 92.0978 o
352.488 128.936 o
222.559 99.0237 o
317.454 134.319 o
309.178 112.593 o
278.39 105.291 o
269.276 148.621 o
260.83 151.674 o
307.576 89.2049 o
348.05 87.0147 o
279.107 154.376 o
249.582 144.223 o
248.55 107.272 o
299.229 123.037 o
312.686 150.106 o
261.688 162.278 o
278.946 119.961 o
248.593 142.599 o
315.359 123.739 o
296.853 143.362 o
304.837 122.434 o
176.543 0.593245 o
210.967 108.978 o
263.294 128.402 o
167.894 35.6678 o
259.732 94.0191 o
262.801 137.663 o
272.184 88.9353 o
293.646 140.519 o
272.316 125.732 o
269.262 139.819 o
356.774 128.987 o
331.2 151.932 o
269.409 143.244 o
208.824 85.4565 o
261.728 160.547 o
309.584 129.495 o
241.554 117.128 o
433 77.5983 o
433 79.1053 o
253.798 121.71 o
322.173 117.833 o
291.074 140.375 o
287.512 134.343 o
392.781 125.792 o
291.389 150.839 o
286.988 158.555 o
245.149 108.147 o
260.08 139.106 o
286.871 136.28 o
265.952 176.776 o
281.109 106.409 o
258.575 153.354 o
201.367 71.8644 o
243.045 122.873 o
293.266 126.245 o
272.224 138.962 o
314.213 74.3667 o
278.35 139.992 o
290.761 153.011 o
271.133 167.22 o
277.645 134.981 o
291.635 154.46 o
206.52 81.1058 o
265.073 107.946 o
296.494 126.028 o
244.902 104.074 o
266.481 126.861 o
317.439 116.625 o
272.137 137.396 o
323.051 126.971 o
199.769 65.4144 o
258.007 53.754 o
271.887 141.058 o
267.537 113.913 o
297.927 139.587 o
392.08 97.2342 o
216.565 75.368 o
231.788 175.087 o
295.885 134.432 o
292.073 110.179 o
111.357 24.9232 o
243.753 99.1117 o
414.411 106.722 o
260.727 141.98 o
261.153 139.253 o
310.938 97.6867 o
327.726 136.634 o
260.173 121.117 o
278.032 135.199 o
225.757 75.4457 o
285.716 74.2741 o
305.661 136.324 o
276.462 113.528 o
288.272 152.412 o
259.199 160.537 o
268.035 83.0224 o
307.708 167.515 o
283.939 117.58 o
196.517 80.9394 o
295.734 154.671 o
201.342 33.2862 o
192.51 122.351 o
251.363 144.147 o
234.649 140.208 o
296.279 132.414 o
183.965 70.0298 o
185.909 22.062 o
240.794 160.295 o
268.088 135.313 o
294.088 122.793 o
308.924 133.664 o
299.029 120.497 o
329.06 87.8479 o
306.724 139.878 o
212.72 90.924 o
290.599 179.85 o
298.125 168.186 o
240.688 142.994 o
261.681 74.5735 o
270.34 139.745 o
260.802 122.354 o
205.89 68.7974 o
312.308 154.808 o
390.17 136.791 o
187.941 28.8105 o
433 74.3145 o
433 101.683 o
257.008 161.699 o
289.999 87.6789 o
278.783 142 o
277.55 72.737 o
245.569 109.557 o
287.544 139.062 o
383.692 138.236 o
417.643 89.1249 o
302.963 133.041 o
307.438 121.067 o
262.993 118.252 o
269.464 80.8477 o
294.086 136.611 o
283.949 155.37 o
192.621 -1 o
203.387 -1 o
294.764 93.062 o
215.838 118.739 o
261.466 164.648 o
314.65 83.1775 o
300.449 128.441 o
334.098 119.28 o
grestore
[3.7 1.6] 0 setdash
0.800 0.400 0.000 setrgbcolor
gsave
354 230.9 59.17 46.28 clipbox
251.335086 46.28 m
251.335086 277.2 l
stroke
grestore
gsave
354 230.9 59.17 46.28 clipbox
312.019429 46.28 m
312.019429 277.2 l
stroke
grestore
0.800 setlinewidth
0 setlinejoin
2 setlinecap
[] 0 setdash
0.000 setgray
gsave
59.168 46.28 m
59.168 277.2 l
stroke
grestore
gsave
413.16 46.28 m
413.16 277.2 l
stroke
grestore
gsave
59.168 46.28 m
413.16 46.28 l
stroke
grestore
gsave
59.168 277.2 m
413.16 277.2 l
stroke
grestore

end
showpage
